<?xml version="1.0" encoding="UTF-8" standalone="no"?>
<svg
   xmlns:dc="http://purl.org/dc/elements/1.1/"
   xmlns:cc="http://creativecommons.org/ns#"
   xmlns:rdf="http://www.w3.org/1999/02/22-rdf-syntax-ns#"
   xmlns:svg="http://www.w3.org/2000/svg"
   xmlns="http://www.w3.org/2000/svg"
   xmlns:sodipodi="http://sodipodi.sourceforge.net/DTD/sodipodi-0.dtd"
   xmlns:inkscape="http://www.inkscape.org/namespaces/inkscape"
   id="Laag_1"
   data-name="Laag 1"
   viewBox="0 0 113.39 113.39"
   version="1.1"
   inkscape:version="0.91 r13725"
   sodipodi:docname="VFCircleUnkown.svg">
  <metadata
     id="metadata18">
    <rdf:RDF>
      <cc:Work
         rdf:about="">
        <dc:format>image/svg+xml</dc:format>
        <dc:type
           rdf:resource="http://purl.org/dc/dcmitype/StillImage" />
        <dc:title>vfcircleunkown</dc:title>
      </cc:Work>
    </rdf:RDF>
  </metadata>
  <sodipodi:namedview
     pagecolor="#ff78ff"
     bordercolor="#666666"
     borderopacity="1"
     objecttolerance="10"
     gridtolerance="10"
     guidetolerance="10"
     inkscape:pageopacity="0"
     inkscape:pageshadow="2"
     inkscape:window-width="1317"
     inkscape:window-height="858"
     id="namedview16"
     showgrid="false"
     inkscape:zoom="4.1626246"
     inkscape:cx="60.78118"
     inkscape:cy="37.020329"
     inkscape:window-x="0"
     inkscape:window-y="0"
     inkscape:window-maximized="0"
     inkscape:current-layer="Laag_1" />
  <defs
     id="defs3">
    <style
       id="style5">.cls-1{fill:none;stroke:#706f6f;stroke-miterlimit:10;stroke-width:2px;}</style>
  </defs>
  <title
     id="title7">vfcircleunkown</title>
  <ellipse
     style="opacity:1;fill:#ffffff;fill-opacity:1;stroke:#333e3b;stroke-width:0.97518587;stroke-opacity:1"
     id="path3352"
     cx="56.532902"
     cy="56.574883"
     rx="53.584377"
     ry="53.944725" />
  <g
     id="LogoSquare">
    <path
       class="cls-1"
       d="M 56.68,19.1 A 37.5,37.5 0 1 0 94,56.6 A 37.41,37.41 0 0 0 56.68,19.1 m 0.23,58.43 A 20.93,20.93 0 1 1 77.43,56.6 A 20.73,20.73 0 0 1 56.9,77.52"
       id="path10"
       inkscape:connector-curvature="0"
       style="fill:none;stroke:#706f6f;stroke-width:2px;stroke-miterlimit:10" />
    <path
       class="cls-1"
       d="M 110.55,56.6 A 54.09,54.09 0 1 1 56.46,2.51 a 54.09,54.09 0 0 1 54.09,54.09"
       id="path12"
       inkscape:connector-curvature="0"
       style="fill:none;stroke:#706f6f;stroke-width:2px;stroke-miterlimit:10" />
    <path
       class="cls-1"
       d="M 56.68,19.1 A 37.5,37.5 0 1 0 94,56.6 A 37.41,37.41 0 0 0 56.68,19.1 m 0.23,58.43 A 20.93,20.93 0 1 1 77.43,56.6 A 20.73,20.73 0 0 1 56.9,77.52"
       id="path14"
       inkscape:connector-curvature="0"
       style="fill:none;stroke:#706f6f;stroke-width:2px;stroke-miterlimit:10" />
  </g>
</svg>
