<svg xmlns="http://www.w3.org/2000/svg" xmlns:xlink="http://www.w3.org/1999/xlink" width="359.57mm" height="501.26mm" viewBox="0 0 1019.26 1420.89">
  <defs>
    <style>
      .cls-1, .cls-12, .cls-15, .cls-16, .cls-18, .cls-2, .cls-3 {
        fill: none;
      }

      .cls-2, .cls-3 {
        stroke: #009fe3;
        stroke-linejoin: round;
      }

      .cls-16, .cls-2 {
        stroke-linecap: round;
      }

      .cls-2 {
        stroke-width: 2.97px;
      }

      .cls-3 {
        stroke-width: 4.3px;
      }

      .cls-4 {
        fill: #0069b4;
      }

      .cls-5 {
        fill: #8c8c8c;
      }

      .cls-6 {
        clip-path: url(#clip-path);
      }

      .cls-7 {
        fill: #e7deee;
      }

      .cls-8 {
        clip-path: url(#clip-path-2);
      }

      .cls-9 {
        fill: #e1f0f0;
      }

      .cls-10 {
        fill: #e6007e;
      }

      .cls-11 {
        fill: #fce8f3;
      }

      .cls-12, .cls-15, .cls-16, .cls-18 {
        stroke: #0069b3;
        stroke-miterlimit: 10;
      }

      .cls-12 {
        stroke-width: 7.13px;
      }

      .cls-13 {
        clip-path: url(#clip-path-3);
      }

      .cls-14 {
        fill: #fff;
      }

      .cls-15 {
        stroke-width: 7.17px;
      }

      .cls-16, .cls-18 {
        stroke-width: 3.56px;
      }

      .cls-17 {
        fill: #e0f9f4;
      }

      .cls-19 {
        clip-path: url(#clip-path-4);
      }

      .cls-20 {
        clip-path: url(#clip-path-5);
      }

      .cls-21 {
        clip-path: url(#clip-path-6);
      }

      .cls-22 {
        fill: #0069b3;
      }
    </style>
    <clipPath id="clip-path">
      <rect class="cls-1" x="591.64" y="545.62" width="43.14" height="54.49" rx="12.8" ry="12.8"/>
    </clipPath>
    <clipPath id="clip-path-2">
      <path class="cls-1" d="M839.05,682c11.46,184.62-120.44,339.37-297.11,351a325.4,325.4,0,0,1-346.32-301.1C182,551.82,315.06,394.69,492.74,380.92S825.47,502,839.05,682"/>
    </clipPath>
    <clipPath id="clip-path-3">
      <rect class="cls-1" x="596.87" y="657.87" width="26.19" height="44.4" rx="12.8" ry="12.8"/>
    </clipPath>
    <clipPath id="clip-path-4">
      <rect class="cls-1" x="604.99" y="676.85" width="41.29" height="73.51" rx="12.8" ry="12.8"/>
    </clipPath>
    <clipPath id="clip-path-5">
      <rect class="cls-1" x="322.81" y="631.09" width="49.58" height="97.07" rx="12.8" ry="12.8"/>
    </clipPath>
    <clipPath id="clip-path-6">
      <rect class="cls-1" x="597.9" y="617.65" width="37.69" height="54.14" rx="12.8" ry="12.8"/>
    </clipPath>
  </defs>
  <title>no-wifi</title>
  <g id="Laag_1" data-name="Laag 1">
    <g>
      <path class="cls-2" d="M498.56,1133.91l-9.72-4.35-7.34,4.22,16.7,10.78,16.62-6.56-7.05,18.3,8.33-4.32,10.14-18.53,12.64-5.57a4.68,4.68,0,0,0-3.62-8.62Z"/>
      <polyline class="cls-2" points="521.8 1124.63 506.91 1115.3 499.46 1119.15 512.99 1128.15"/>
    </g>
    <polyline class="cls-2" points="477.03 1188.25 477.03 1166.14 486.18 1166.14 486.18 1188.25"/>
    <polyline class="cls-2" points="486.97 1173.64 508.8 1173.64 508.8 1188.25"/>
    <line class="cls-2" x1="481.6" y1="1153.48" x2="481.6" y2="1158.97"/>
    <polygon class="cls-2" points="487.09 1166.29 476.11 1166.29 472.45 1158.97 490.75 1158.97 487.09 1166.29"/>
    <circle class="cls-2" cx="534.32" cy="1181.5" r="3.07"/>
    <line class="cls-2" x1="534.34" y1="1170.79" x2="534.34" y2="1176.92"/>
    <line class="cls-2" x1="528.98" y1="1174.89" x2="539.71" y2="1174.89"/>
    <line class="cls-2" x1="516.17" y1="1178.95" x2="530.49" y2="1181.5"/>
    <line class="cls-2" x1="538.16" y1="1181.5" x2="551.42" y2="1178.95"/>
    <line class="cls-2" x1="527.43" y1="1183.03" x2="527.43" y2="1186.1"/>
    <line class="cls-2" x1="541.22" y1="1183.03" x2="541.22" y2="1186.1"/>
    <line class="cls-2" x1="469.92" y1="1188.25" x2="550.57" y2="1188.25"/>
    <circle class="cls-3" cx="509.63" cy="1149.25" r="56.39"/>
    <g>
      <path class="cls-4" d="M121.25,339.56c0,1.48-.94,2.25-2.82,2.33a3.86,3.86,0,0,1-1.51-.21,5.86,5.86,0,0,1-4-5.76c0-.41,0-.93,0-1.55s.1-1.34.18-2.17.15-1.56.18-2.17,0-1.14,0-1.55c.08-.83.17-1.9.26-3.2s.2-2.81.31-4.52a41.46,41.46,0,0,1-13.43,9.12,5.15,5.15,0,0,1-2.11.44q-4.06.17-7.69-4.28a10,10,0,0,1-2.2-6.28,27.55,27.55,0,0,1,1.18-7.92,95.79,95.79,0,0,1,13.79-28.6q4.93-7,8.82-7.17,3.52-.15,4.08,2.49a2,2,0,0,1,.12.7,2.62,2.62,0,0,1-1.49,2.54l-3.2,2a70.63,70.63,0,0,0-6.72,9.61,97.4,97.4,0,0,0-6,12.14q-3.48,8-3.22,14.55c0,.41,0,.79,0,1.14a8.36,8.36,0,0,0,.14,1.15c.12.05.29.3.51.73s.48.64.78.63a.17.17,0,0,0,.13-.05.17.17,0,0,1,.13-.05q5.73-2.53,17.08-12.81c.57-.43,1.2-1.82,1.87-4.14a3.4,3.4,0,0,1,1.29-2,3.2,3.2,0,0,1,1.61-.64.54.54,0,0,1,.35-.1l.49,0a4.15,4.15,0,0,0,.74-.12l.44,0a1.16,1.16,0,0,1,1,.32,7.9,7.9,0,0,1,1.84,4,3.74,3.74,0,0,1-.28,1.69,41.93,41.93,0,0,0-1.81,6.71,43.17,43.17,0,0,0-.69,8Z"/>
      <path class="cls-4" d="M139.07,331.85a4.57,4.57,0,0,1-2.73-.73c-.81-.52-1.67-1-2.58-1.53a12,12,0,0,1-4.68-4.23,13,13,0,0,1-1.86-6.65,19.38,19.38,0,0,1,.47-4.66c.37-1.82.7-3.49,1-5a12.59,12.59,0,0,1,1.13-2.74,19,19,0,0,1,2.29-3.46,16.84,16.84,0,0,1,3.19-3,6.73,6.73,0,0,1,3.75-1.39,2.86,2.86,0,0,1,1.61.46,14.44,14.44,0,0,0,2.62,1.22c.89.32,1.8.64,2.73.95s1.84.67,2.74,1a11.43,11.43,0,0,1,2.54,1.49,5.32,5.32,0,0,1,1.58,1.88c.38.76.77,1.48,1.15,2.17a4.93,4.93,0,0,1,.6,1.79,19,19,0,0,1,.17,1.89l.07,1.68a13.89,13.89,0,0,1-.9,5.12,33.07,33.07,0,0,1-2.24,4.65c-.45.78-1,1.69-1.75,2.72a22.65,22.65,0,0,1-2.45,2.93,17.38,17.38,0,0,1-2.86,2.37,6,6,0,0,1-3.1,1.06c-.3,0-.61,0-.93,0h-1Zm7.8-21.46a4,4,0,0,0-2-3.63,7.59,7.59,0,0,0-4.11-1,3.88,3.88,0,0,0-2.94,1.49,12.69,12.69,0,0,0-2,3.44,18.26,18.26,0,0,0-1.1,4.29,22,22,0,0,0-.24,3.95,15.36,15.36,0,0,0,.76,3.59,6.72,6.72,0,0,0,1.1,2,2.09,2.09,0,0,0,1.76.82,4.83,4.83,0,0,0,1.75-.39c.52-.22,1.1-.5,1.74-.82a8.41,8.41,0,0,0,2.37-2.48,14.06,14.06,0,0,0,1.59-3.34,23.34,23.34,0,0,0,.91-3.75,35,35,0,0,0,.43-3.73Z"/>
      <path class="cls-4" d="M183.75,273.25a11.18,11.18,0,0,1,.17-2.31l1.12-.62a2.74,2.74,0,0,1,1.14-.26,4.86,4.86,0,0,1,2.45.43,3.9,3.9,0,0,1,1.47,1.26,5.41,5.41,0,0,1,.74,1.79,11.41,11.41,0,0,1,.25,2c0,1.23.13,2.31.22,3.22s.16,1.8.2,2.69.06,1.87.07,2.78,0,1.84.07,2.78c0,.65,0,1.33,0,2s0,1.44,0,2.21a5.43,5.43,0,0,0,.13,1c.07.3.34.43.81.41a9.93,9.93,0,0,0,4-.91,9.93,9.93,0,0,1,4-.91,1.64,1.64,0,0,1,1.71.9,4.61,4.61,0,0,1,.52,1.92,2.82,2.82,0,0,1-.45,1.84,3.6,3.6,0,0,1-1.28,1.07,10.69,10.69,0,0,1-1.7.64c-.62.17-1.21.36-1.79.56a14.19,14.19,0,0,1-1.88.74,13.8,13.8,0,0,0-2,.83,5.57,5.57,0,0,0-1.63,1.22,2.36,2.36,0,0,0-.64,1.79c0,.42.05.8.09,1.15a9.28,9.28,0,0,1,.09,1.06c0,.35,0,.72,0,1.1s0,.79,0,1.2a62.29,62.29,0,0,0,.9,8.23c.5,2.84,1,5.57,1.62,8.21.21.81.45,1.63.72,2.44a8.5,8.5,0,0,1,.45,2.28,2.8,2.8,0,0,1-.71,2.24,4.32,4.32,0,0,1-1.73,1.05,10.37,10.37,0,0,1-1,.22,3.46,3.46,0,0,1-2.28-.75,7.42,7.42,0,0,1-1.81-2,18.84,18.84,0,0,1-.89-3.33c-.26-1.4-.45-2.69-.55-3.87-.3-2.88-.53-5.74-.71-8.6s-.35-5.72-.52-8.6c0-.23,0-.45-.07-.66a2.21,2.21,0,0,0-.25-.65,9.53,9.53,0,0,0-2.62.9,5.51,5.51,0,0,1-2.45.63,4.22,4.22,0,0,1-3.05-1c-.85-.73-1.5-1.32-1.93-1.77a9.65,9.65,0,0,1,.34-2.5,12,12,0,0,1,2.1-.7l1.88-.43c.62-.14,1.24-.32,1.88-.52a9.8,9.8,0,0,0,2.09-1q1.41-.06,1.59-1.17a10.64,10.64,0,0,0,.14-1.91c0-1.06-.1-1.95-.15-2.69s-.12-1.78-.18-3.13c0-.88-.08-1.78-.15-2.69s-.12-1.81-.15-2.69Z"/>
      <path class="cls-4" d="M212.19,328.88a4.57,4.57,0,0,1-2.73-.73c-.81-.52-1.68-1-2.58-1.53a12,12,0,0,1-4.68-4.23,13.15,13.15,0,0,1-1.87-6.65,20,20,0,0,1,.48-4.66q.56-2.71,1-5a13,13,0,0,1,1.12-2.74,19.07,19.07,0,0,1,2.3-3.46,17.16,17.16,0,0,1,3.19-3,6.7,6.7,0,0,1,3.75-1.39,2.86,2.86,0,0,1,1.61.46,14.35,14.35,0,0,0,2.61,1.22c.9.32,1.81.64,2.74.95s1.84.67,2.74,1a11.66,11.66,0,0,1,2.54,1.49,5.52,5.52,0,0,1,1.58,1.88c.38.76.76,1.48,1.15,2.17a5.19,5.19,0,0,1,.6,1.79c.08.61.14,1.25.17,1.89L228,310a13.69,13.69,0,0,1-.89,5.12,33.13,33.13,0,0,1-2.25,4.65c-.44.78-1,1.69-1.74,2.72a23.48,23.48,0,0,1-2.45,2.93,17,17,0,0,1-2.87,2.37,5.89,5.89,0,0,1-3.09,1.06c-.3,0-.61,0-.93,0h-1Zm7.8-21.45a4,4,0,0,0-2-3.64,7.63,7.63,0,0,0-4.11-1,3.87,3.87,0,0,0-2.94,1.49,12.69,12.69,0,0,0-2,3.44,18.77,18.77,0,0,0-1.11,4.29,22.91,22.91,0,0,0-.23,4,11.18,11.18,0,0,0,.19,1.4,11.81,11.81,0,0,0,.57,2.19,6.5,6.5,0,0,0,1.1,2,2.09,2.09,0,0,0,1.76.82A4.88,4.88,0,0,0,213,322c.52-.22,1.1-.49,1.74-.82a8.53,8.53,0,0,0,2.37-2.48,14.06,14.06,0,0,0,1.59-3.34,23.34,23.34,0,0,0,.91-3.75c.21-1.31.35-2.55.42-3.73Z"/>
      <path class="cls-4" d="M282.66,323.9l.59,1.43a4.63,4.63,0,0,1,.32,1.45,1.64,1.64,0,0,1-.35,1.16,2.89,2.89,0,0,1-.94.75,5.59,5.59,0,0,1-1.18.44,5,5,0,0,1-1.14.18,3.33,3.33,0,0,1-3-1.86,18.57,18.57,0,0,1-2.06-4.87c-.55-2-1-4-1.45-6.23s-.8-4.16-1.17-5.92a15.29,15.29,0,0,1-1.53,4.75,28.3,28.3,0,0,1-3.44,5.58,25.48,25.48,0,0,1-4.68,4.66,9.21,9.21,0,0,1-5.22,2.07,6.66,6.66,0,0,1-3.52-.7,5.71,5.71,0,0,1-2.16-2,8.41,8.41,0,0,1-1.09-2.74,18.64,18.64,0,0,1-.38-2.86,23.07,23.07,0,0,1,1.17-7.26,40.57,40.57,0,0,1,3.63-8.51,30.08,30.08,0,0,1,5.55-7.16,10.55,10.55,0,0,1,6.9-3.16,7.27,7.27,0,0,1,1.82.19,19.44,19.44,0,0,1,2.1.58,12.66,12.66,0,0,1,2.07.89,17.91,17.91,0,0,1,1.73,1,6.11,6.11,0,0,1,2.16,3.27,35,35,0,0,1,1,4.38q.8,4.4,1.3,8a53.2,53.2,0,0,0,1.63,7.5l.66,3.25Zm-25.09-3.58a.17.17,0,0,0,.05.13.17.17,0,0,1,.05.13,4.71,4.71,0,0,0,2.59-1.66,28.26,28.26,0,0,0,2.86-3.61,43.33,43.33,0,0,0,2.6-4.39,24.18,24.18,0,0,0,1.74-4.1c.21-.53.47-1.13.77-1.8l.89-2a20.48,20.48,0,0,0,.71-1.93,4.43,4.43,0,0,0,.25-1.52,8.06,8.06,0,0,1-.81-.32,1.73,1.73,0,0,0-.8-.14,4.74,4.74,0,0,0-3.38,1.64,17.11,17.11,0,0,0-2.47,3.46,27.56,27.56,0,0,0-1.67,3.65,18.92,18.92,0,0,1-.88,2.2,27.39,27.39,0,0,0-1.88,4.86,16,16,0,0,0-.64,5Z"/>
      <path class="cls-4" d="M308.43,313.83a9.71,9.71,0,0,0-.71-3.33,10.06,10.06,0,0,1-.71-3.34,26.73,26.73,0,0,0-.64-4.83,25.79,25.79,0,0,1-.63-4.75,16.44,16.44,0,0,1,.17-3.24c.17-1,.87-1.58,2.11-1.63,2.12-.09,3.47.33,4.07,1.24a6.56,6.56,0,0,1,1,3.33,21.13,21.13,0,0,0,.62,4.44,44,44,0,0,1,.91,5c.09.82.18,1.6.27,2.33a12.81,12.81,0,0,0,.44,2.15,4.52,4.52,0,0,0,1-1.55c.3-.66.58-1.36.85-2.11l.75-2.15a10.51,10.51,0,0,1,.77-1.76,11.37,11.37,0,0,0,1.14-2.26c.32-.83.67-1.64,1.06-2.43a13.29,13.29,0,0,1,1.24-2.08,3.22,3.22,0,0,1,1.63-1.22,13.36,13.36,0,0,0,1.61.42,7.37,7.37,0,0,1,1.66.56,3.34,3.34,0,0,1,1.28,1.05,3.39,3.39,0,0,1,.56,1.92,30.86,30.86,0,0,0,1.29,7.69c.75,2.48,1.48,4.64,2.21,6.5a31.3,31.3,0,0,0,2.49-6.07q1-3.36,1.77-6.49t1.32-5.76a20.4,20.4,0,0,1,1.12-3.89,3.14,3.14,0,0,1,1.59-1.21,6.13,6.13,0,0,1,2-.53,3,3,0,0,1,2.34,1,3.22,3.22,0,0,1,1.05,2,10.63,10.63,0,0,1-.3,2.22c-.23,1.08-.52,2.27-.87,3.58s-.77,2.71-1.2,4.2-.87,2.9-1.29,4.21-.8,2.47-1.15,3.46-.59,1.66-.75,2a34.83,34.83,0,0,0-1.4,3.86,20.48,20.48,0,0,1-1.4,3.59,8.18,8.18,0,0,1-2,2.65,5.34,5.34,0,0,1-3.32,1.11,4.12,4.12,0,0,1-3.41-1.37,13.69,13.69,0,0,1-2.28-3.67,48.34,48.34,0,0,1-1.78-4.74,23.2,23.2,0,0,0-1.95-4.52c-.39.72-.79,1.59-1.22,2.61s-.87,2.06-1.29,3.1-.88,2.08-1.34,3.07a13.53,13.53,0,0,1-1.45,2.49,2.88,2.88,0,0,0-.66,1.13,3.56,3.56,0,0,1-.44,1,2.5,2.5,0,0,1-.85.79,4.39,4.39,0,0,1-1.89.39,3.65,3.65,0,0,1-2.87-.95,6.73,6.73,0,0,1-1.56-2.54,13.26,13.26,0,0,1-.71-3.29q-.17-1.77-.21-3.09Z"/>
      <path class="cls-4" d="M350.55,270.81a2.34,2.34,0,0,1,1.58-.51,5.89,5.89,0,0,1,1.82.24,6.39,6.39,0,0,1,1.76.81,5.45,5.45,0,0,1,1.33,1.23,2.7,2.7,0,0,1,.55,1.48,2.6,2.6,0,0,1-.75,2.29,4.1,4.1,0,0,1-2.32.67,7,7,0,0,1-2-.23,9,9,0,0,1-1.84-.68,5.81,5.81,0,0,1-1.32-.87,1.4,1.4,0,0,1-.52-.91,6.68,6.68,0,0,1,.15-1.86C349.11,271.93,349.63,271.38,350.55,270.81Zm9.79,49.4a3.22,3.22,0,0,1-.29,1.43,7.13,7.13,0,0,1-1.26,1.73,13.91,13.91,0,0,1-2.79-.15,4.87,4.87,0,0,1-2.25-1A5.23,5.23,0,0,1,352.2,320a12.63,12.63,0,0,1-.7-4,14.57,14.57,0,0,0-.43-3,15.29,15.29,0,0,1-.43-3,66.48,66.48,0,0,0-.87-8.54,64.86,64.86,0,0,1-.88-8.55,3.16,3.16,0,0,1,1.38-2.88,13.73,13.73,0,0,1,1.67-.47l1.75-.38a3.91,3.91,0,0,1,1.89.94c.43.42.83.84,1.2,1.23,0,.6,0,1.19-.06,1.78s0,1.21,0,1.85q.14,3.36.64,7.14t1.09,7.21c.38,2.28.75,4.36,1.09,6.24s.59,3.3.75,4.3Z"/>
      <path class="cls-4" d="M367.14,300.12q-3.08.66-4.66-.3a3.16,3.16,0,0,1-1.66-2.71,1.29,1.29,0,0,1,.62-1.22,5.61,5.61,0,0,1,1.56-.69c.61-.17,1.25-.31,1.93-.43a7.25,7.25,0,0,0,1.7-.47V291c0-.7,0-1.18,0-1.41s0-.34.08-.32,0,0,0,0,0-.25,0-.58,0-.95-.08-1.89a35.81,35.81,0,0,1,.1-4.21,35.35,35.35,0,0,1,.57-4.31,28.73,28.73,0,0,1,1-3.8,9.58,9.58,0,0,1,1.35-2.76c.5-.66,1.05-1.35,1.64-2a3.13,3.13,0,0,1,2.38-1.12,2.71,2.71,0,0,1,1,.23,8.08,8.08,0,0,1,1.26.61,6.81,6.81,0,0,1,1,.75,1.16,1.16,0,0,1,.43.74A2.75,2.75,0,0,1,377,273a8.4,8.4,0,0,0-1.14,1.33c-.62.85-1.16,1.56-1.64,2.14a4.57,4.57,0,0,0-.92,2.38c-.19,1.31-.31,2.86-.39,4.66s-.08,3.47,0,5c0,.35,0,.83,0,1.41s0,1,0,1.33c0,.65.11,1,.27,1.18s.55.2,1.2.18a17.88,17.88,0,0,0,2.33-.32l3.16-.57c1.08-.19,2.08-.38,3-.56a12.88,12.88,0,0,1,1.89-.3,2.28,2.28,0,0,1,1.66.42,9.35,9.35,0,0,1,1.26,1.67,46.54,46.54,0,0,0,.28,7q.42,3.87,1,7.56t1.16,6.77q.56,3.07.81,4.65a2.7,2.7,0,0,1-.17,1.42,6,6,0,0,1-1.21,1.73,13.09,13.09,0,0,1-2.53-.12,4.12,4.12,0,0,1-2.07-.88,5.06,5.06,0,0,1-1.41-2.07,11.21,11.21,0,0,1-.63-3.64,12.25,12.25,0,0,0-.42-2.73,11.61,11.61,0,0,1-.42-2.72,51.39,51.39,0,0,0-.61-6.22q-.46-2.76-.77-6c-.89.09-1.73.22-2.55.37a15.22,15.22,0,0,0-2.24.57,5.32,5.32,0,0,0-1.6.86,1.47,1.47,0,0,0-.57,1.22q.27,8.75.62,15.19c.23,4.3.47,8,.72,11.12s.46,5.71.67,7.8.4,3.81.61,5.19.36,2.49.49,3.34.19,1.6.22,2.25c0,1.12-.25,1.81-.89,2.07a5.75,5.75,0,0,1-2,.43,3,3,0,0,1-2.85-1.6,13.44,13.44,0,0,1-1.49-4,28.61,28.61,0,0,1-.59-4.71c-.06-1.59-.11-2.8-.14-3.62-.06-1.47-.18-2.9-.35-4.28s-.29-2.74-.35-4.1c0-.41-.05-1.28-.1-2.6s-.14-2.87-.24-4.64-.19-3.63-.27-5.6-.17-3.84-.27-5.61-.18-3.29-.23-4.59S367.15,300.54,367.14,300.12Zm15.13-25.82a2.05,2.05,0,0,1,1.4-.41,6,6,0,0,1,3.27.93,3,3,0,0,1,1.74,2.49,2.26,2.26,0,0,1-.72,2.06,3.65,3.65,0,0,1-2.09.62,6,6,0,0,1-1.78-.19,9,9,0,0,1-1.66-.6,5,5,0,0,1-1.23-.79,1.27,1.27,0,0,1-.47-.86,6,6,0,0,1,.15-1.74A2.83,2.83,0,0,1,382.27,274.3Z"/>
      <path class="cls-4" d="M445.23,317.29l.59,1.44a4.51,4.51,0,0,1,.32,1.45,1.66,1.66,0,0,1-.35,1.16,3,3,0,0,1-.94.75,5.59,5.59,0,0,1-1.18.44,5,5,0,0,1-1.14.18,3.35,3.35,0,0,1-3-1.87,18.29,18.29,0,0,1-2-4.87c-.55-2-1-4-1.45-6.22s-.8-4.17-1.17-5.92a15.37,15.37,0,0,1-1.53,4.75,28.9,28.9,0,0,1-3.44,5.58,25.79,25.79,0,0,1-4.68,4.66,9.25,9.25,0,0,1-5.22,2.06,6.57,6.57,0,0,1-3.52-.69,5.79,5.79,0,0,1-2.16-2,8.38,8.38,0,0,1-1.09-2.75,17.23,17.23,0,0,1-.38-2.85,23,23,0,0,1,1.17-7.26,40.57,40.57,0,0,1,3.63-8.51,30.34,30.34,0,0,1,5.55-7.17,10.59,10.59,0,0,1,6.9-3.15,7.27,7.27,0,0,1,1.82.19,19.44,19.44,0,0,1,2.1.58,11.85,11.85,0,0,1,2.07.89c.67.36,1.24.7,1.73,1a6.18,6.18,0,0,1,2.16,3.28,34.59,34.59,0,0,1,1,4.38q.8,4.39,1.29,7.95a54.73,54.73,0,0,0,1.64,7.5l.66,3.24Zm-25.09-3.58a.2.2,0,0,0,.05.14.16.16,0,0,1,.05.13,4.72,4.72,0,0,0,2.58-1.66,28.28,28.28,0,0,0,2.87-3.61,43.33,43.33,0,0,0,2.6-4.39,25.93,25.93,0,0,0,1.74-4.1c.21-.54.47-1.14.77-1.8s.59-1.33.89-2a18.63,18.63,0,0,0,.71-1.93,4.38,4.38,0,0,0,.25-1.51c-.3-.11-.57-.21-.81-.32a1.63,1.63,0,0,0-.8-.14,4.72,4.72,0,0,0-3.38,1.64,16.73,16.73,0,0,0-2.47,3.46,27,27,0,0,0-1.67,3.65,21,21,0,0,1-.88,2.2,26.54,26.54,0,0,0-1.88,4.85,16,16,0,0,0-.64,5Z"/>
      <path class="cls-4" d="M465.41,313.47a2.27,2.27,0,0,1,1.76.63,2.52,2.52,0,0,1,.73,1.74,2.05,2.05,0,0,1-.43,1.44,3,3,0,0,1-1.25.84,9.12,9.12,0,0,1-1.79.47q-1,.18-2,.3c-1-.25-2-.48-2.9-.67a8.74,8.74,0,0,1-2.84-1.22c-1.52-1.17-3-2.44-4.44-3.79a15.52,15.52,0,0,1-3.42-4.73,4.49,4.49,0,0,1-.81-1.38,17.9,17.9,0,0,1-.6-1.79,12.58,12.58,0,0,1-.38-1.75,13.37,13.37,0,0,1-.15-1.37,18.61,18.61,0,0,1,.25-3.73,19.51,19.51,0,0,1,1-3.84,16.83,16.83,0,0,1,1.8-3.48,11.15,11.15,0,0,1,2.63-2.72l3.3-1.63c.81-.27,1.63-.57,2.44-.9a7.81,7.81,0,0,1,2.63-.55,6.1,6.1,0,0,1,2.86.64,4.73,4.73,0,0,1,1.43,2.55,4.92,4.92,0,0,1-.48,1.26,2.2,2.2,0,0,1-1.28,1.11,6.16,6.16,0,0,1-1.88.61,5,5,0,0,0-1.79.6,12.39,12.39,0,0,0-2.33,1.51c-.57.5-1,.93-1.36,1.29a4,4,0,0,0-.83,1.28,4.83,4.83,0,0,0-.8,2.24,15.77,15.77,0,0,0-.08,2.21,12.57,12.57,0,0,0,.72,3.69,19.56,19.56,0,0,0,1.6,3.43,13.3,13.3,0,0,0,2.1,2.74,8.41,8.41,0,0,0,2.15,1.64,4.45,4.45,0,0,0,3.24,1.37Z"/>
      <path class="cls-4" d="M488.73,312.52a2.23,2.23,0,0,1,1.75.64,2.48,2.48,0,0,1,.73,1.74,2,2,0,0,1-.43,1.43,3,3,0,0,1-1.24.85,11.18,11.18,0,0,1-1.8.47l-2,.3c-1-.26-2-.48-2.9-.68a8.93,8.93,0,0,1-2.84-1.21c-1.52-1.18-3-2.44-4.44-3.8a15.4,15.4,0,0,1-3.42-4.73,4.49,4.49,0,0,1-.81-1.38,17.9,17.9,0,0,1-.6-1.79,13.82,13.82,0,0,1-.38-1.75,12.67,12.67,0,0,1-.14-1.37,18.48,18.48,0,0,1,.24-3.72,19.42,19.42,0,0,1,1-3.85,17.08,17.08,0,0,1,1.8-3.48,11,11,0,0,1,2.64-2.71l3.29-1.64c.82-.27,1.63-.57,2.44-.9a7.8,7.8,0,0,1,2.63-.54,6,6,0,0,1,2.86.63,4.73,4.73,0,0,1,1.43,2.55,4.92,4.92,0,0,1-.48,1.26,2.17,2.17,0,0,1-1.28,1.11,5.66,5.66,0,0,1-1.88.61,5.26,5.26,0,0,0-1.79.6,12.91,12.91,0,0,0-2.33,1.51,18,18,0,0,0-1.36,1.3,4.12,4.12,0,0,0-.83,1.27,4.87,4.87,0,0,0-.8,2.24,15.86,15.86,0,0,0-.08,2.22,12.57,12.57,0,0,0,.72,3.68,20,20,0,0,0,1.6,3.43,13.64,13.64,0,0,0,2.1,2.75,8.83,8.83,0,0,0,2.15,1.64,4.49,4.49,0,0,0,3.24,1.37Z"/>
      <path class="cls-4" d="M493.88,302.23a26.6,26.6,0,0,1,.57-6.61,20.31,20.31,0,0,1,2.28-6.07,14.09,14.09,0,0,1,4-4.45,10.2,10.2,0,0,1,5.68-1.87,10.42,10.42,0,0,1,4,.55,8.51,8.51,0,0,1,2.95,1.74,7.7,7.7,0,0,1,1.83,2.53,8.44,8.44,0,0,1,.7,3,10.67,10.67,0,0,1-2.62,7.45,10.63,10.63,0,0,1-3.39,2.57,12.41,12.41,0,0,1-4.68,1.21,7.27,7.27,0,0,1-2,0,20.91,20.91,0,0,1-2.05-.44,3.52,3.52,0,0,0-.06.75c0,.21,0,.37,0,.49a11.87,11.87,0,0,0,1.27,5.07,8.82,8.82,0,0,0,2.23,2.7,5.81,5.81,0,0,0,2.26,1.1,7.19,7.19,0,0,0,1.42.21,7.92,7.92,0,0,0,4.5-1.42l3.9-2.9,1,.36a2.31,2.31,0,0,1,1,.8,7,7,0,0,0,.21.83,3.24,3.24,0,0,1,.12.92,4,4,0,0,1-.57,2.1,7.67,7.67,0,0,1-1.22,1.51,12,12,0,0,1-4.18,2.69,19.17,19.17,0,0,1-5.15.79,13.22,13.22,0,0,1-3.51-.48,22.48,22.48,0,0,1-3.54-1.18,16.52,16.52,0,0,1-3.44-3.05,13,13,0,0,1-2-3.28,15.57,15.57,0,0,1-1-3.63C494.15,305,494,303.64,493.88,302.23Zm7.49-5.08a5.86,5.86,0,0,0,1.11.08h1.19a6.58,6.58,0,0,0,4.58-1.69,4.76,4.76,0,0,0,1.49-3.69,4.16,4.16,0,0,0-.8-2.26,2.21,2.21,0,0,0-2-1,8.2,8.2,0,0,0-1.72.24,1.94,1.94,0,0,0-1.24.94,10.18,10.18,0,0,1-.76.91,5.06,5.06,0,0,0-.79,1.27,13.61,13.61,0,0,0-.67,2A17.45,17.45,0,0,0,501.37,297.15Z"/>
      <path class="cls-4" d="M532.27,298c1.27,2.19,2.45,4.39,3.55,6.62a18.84,18.84,0,0,1,1.81,7.58,11.6,11.6,0,0,1-.58,4.18,11.38,11.38,0,0,1-1.94,3.52,9.81,9.81,0,0,1-3.08,2.52,9.2,9.2,0,0,1-3.94,1,4.86,4.86,0,0,1-3.46-1.32,5.17,5.17,0,0,1-1.86-3.24,4,4,0,0,1,.63-1,3.11,3.11,0,0,1,1.34-.63,3,3,0,0,0,2.16,1,3.45,3.45,0,0,0,2.6-1.43,4.91,4.91,0,0,0,1-3.4,2.74,2.74,0,0,0-.12-.88,39.33,39.33,0,0,0-2.77-7.1c-1.09-2.11-2.15-4.08-3.2-5.93s-2-3.59-2.74-5.24a13,13,0,0,1-1.26-5,28.51,28.51,0,0,1,.17-4.39,16.18,16.18,0,0,1,1.07-4.24,9,9,0,0,1,2.21-3.28,5.6,5.6,0,0,1,3.7-1.38,2.57,2.57,0,0,1,.49,0,2.53,2.53,0,0,0,.49,0,1.77,1.77,0,0,1,1.54.86,9.08,9.08,0,0,1,.95,1.6,1.35,1.35,0,0,1-.44,1.12,12.46,12.46,0,0,0-.9.88,9.71,9.71,0,0,0-1.42,3.2,13,13,0,0,0-.34,3.51l.09,2.11a5.05,5.05,0,0,0,.51,1.75c.33.76.7,1.55,1.11,2.39s.84,1.62,1.25,2.34a17.52,17.52,0,0,0,1,1.59Z"/>
      <path class="cls-4" d="M550.11,297.29q1.9,3.29,3.54,6.62a18.76,18.76,0,0,1,1.82,7.58,11.57,11.57,0,0,1-.59,4.18A11.21,11.21,0,0,1,553,319.2a9.78,9.78,0,0,1-3.08,2.51,9.21,9.21,0,0,1-3.94,1.05,4.86,4.86,0,0,1-3.46-1.32,5.17,5.17,0,0,1-1.86-3.24,4.58,4.58,0,0,1,.62-1.05,3.25,3.25,0,0,1,1.35-.62,3.06,3.06,0,0,0,2.16,1,3.45,3.45,0,0,0,2.6-1.43,5,5,0,0,0,1-3.41,2.43,2.43,0,0,0-.13-.88,38.5,38.5,0,0,0-2.76-7.09q-1.63-3.17-3.2-5.93c-1-1.85-2-3.59-2.74-5.24a13.1,13.1,0,0,1-1.26-5,28.38,28.38,0,0,1,.17-4.38,16.26,16.26,0,0,1,1.07-4.25,9,9,0,0,1,2.21-3.27,5.61,5.61,0,0,1,3.7-1.39,1.93,1.93,0,0,1,.49,0,2.57,2.57,0,0,0,.49,0,1.81,1.81,0,0,1,1.54.87,9,9,0,0,1,1,1.59,1.34,1.34,0,0,1-.45,1.13c-.31.28-.61.57-.89.87a9.59,9.59,0,0,0-1.42,3.2,13,13,0,0,0-.34,3.51l.08,2.12a5.49,5.49,0,0,0,.52,1.75c.32.75.69,1.55,1.11,2.38s.83,1.62,1.25,2.34.74,1.25,1,1.6Z"/>
      <path class="cls-4" d="M589,326.76a34.21,34.21,0,0,0,.5,4.71,29.13,29.13,0,0,1,.47,4,10.33,10.33,0,0,1-.14,1.95,8.79,8.79,0,0,1-.66,2.23,5.26,5.26,0,0,1-1.34,1.83,3.62,3.62,0,0,1-2.27.8,4,4,0,0,1-2.65-1,3.27,3.27,0,0,1-1.38-2.46q0-.45,0-1c0-.39,0-.79.08-1.2-.09-1-.16-2-.2-3s-.09-2-.13-3c-.12-3.06-.22-6.14-.28-9.23s-.17-6.32-.31-9.68q-.15-3.7-.39-7.45t-.42-8.26q-.15-3.71-.6-7.18c-.3-2.32-.5-4.71-.61-7.19a3.69,3.69,0,0,1,.57-2.41c.42-.54,1.39-.85,2.93-.91s2.76.27,3.36,1a10.19,10.19,0,0,1,1.48,2.77l1.69-.69a5.55,5.55,0,0,1,1.71-.42l.62,0a12.44,12.44,0,0,1,3.64.25,12.74,12.74,0,0,1,2.51,1l.28.17a.18.18,0,0,1,.13,0,.16.16,0,0,0,.14,0,11.72,11.72,0,0,1,3.23,2.35,17.58,17.58,0,0,1,2.66,3.43,20.58,20.58,0,0,1,1.84,4,13.46,13.46,0,0,1,0,9.2,15.88,15.88,0,0,1-2.84,5.16,16.24,16.24,0,0,1-5,4,17.1,17.1,0,0,1-7.32,1.8l-.79,0a2.3,2.3,0,0,1-.89-.14,2.26,2.26,0,0,0-.14,1c0,.44.06,1.43.12,3Zm6.58-23a10.09,10.09,0,0,0,2.62-7.45,10.41,10.41,0,0,0-.61-3.11,10.7,10.7,0,0,0-1.53-2.82,8.85,8.85,0,0,0-2.3-2.11,7,7,0,0,0-3-1l-1.12.49a6,6,0,0,0-1.26.71,6.68,6.68,0,0,0-.9.7.47.47,0,0,0-.12.18.54.54,0,0,1-.22.19,3.93,3.93,0,0,0-.11,1.68q.07,1.68.3,3.93c.15,1.49.23,2.54.26,3.13l.12,3a31.67,31.67,0,0,0,.32,3.52c.16,1.06.47,1.58,1,1.56a12.54,12.54,0,0,0,2.42-.32,10.45,10.45,0,0,0,2.47-1Z"/>
      <path class="cls-4" d="M620.77,312.29a4.52,4.52,0,0,1-2.72-.73c-.82-.53-1.68-1-2.59-1.53a12,12,0,0,1-4.68-4.24,13.21,13.21,0,0,1-1.86-6.64,19.86,19.86,0,0,1,.47-4.66q.55-2.73,1-5a13.16,13.16,0,0,1,1.13-2.75,19.28,19.28,0,0,1,2.29-3.45,16.9,16.9,0,0,1,3.2-3,6.79,6.79,0,0,1,3.74-1.4,2.87,2.87,0,0,1,1.61.47,15.14,15.14,0,0,0,2.62,1.22l2.74.95c.92.32,1.84.66,2.74,1A11,11,0,0,1,633,284a5.32,5.32,0,0,1,1.58,1.88c.39.75.77,1.47,1.15,2.16a5.05,5.05,0,0,1,.6,1.79c.09.62.14,1.25.17,1.9l.07,1.68a14,14,0,0,1-.9,5.12,32,32,0,0,1-2.24,4.65c-.44.78-1,1.69-1.75,2.72a22.52,22.52,0,0,1-2.45,2.93,17.46,17.46,0,0,1-2.86,2.37,6.13,6.13,0,0,1-3.1,1.06c-.29,0-.6,0-.93,0a8.67,8.67,0,0,0-1,0Zm7.8-21.46a4,4,0,0,0-2-3.63,7.55,7.55,0,0,0-4.11-1,3.91,3.91,0,0,0-3,1.5,12.27,12.27,0,0,0-2,3.44,17.79,17.79,0,0,0-1.11,4.29,24,24,0,0,0-.24,3.94A14.77,14.77,0,0,0,617,303a6.3,6.3,0,0,0,1.1,2,2,2,0,0,0,1.75.81,4.73,4.73,0,0,0,1.76-.38c.52-.22,1.1-.5,1.73-.82a8.73,8.73,0,0,0,2.38-2.49,15,15,0,0,0,1.59-3.33,26.32,26.32,0,0,0,.91-3.75,37.55,37.55,0,0,0,.42-3.74Z"/>
      <path class="cls-4" d="M641,259a2.19,2.19,0,0,1,1.57-.51,5.28,5.28,0,0,1,1.82.24,6.39,6.39,0,0,1,1.76.81,5.1,5.1,0,0,1,1.33,1.23,2.6,2.6,0,0,1,.55,1.48,2.57,2.57,0,0,1-.75,2.28,4,4,0,0,1-2.32.67,6.69,6.69,0,0,1-2-.23,9.25,9.25,0,0,1-1.84-.67,5.84,5.84,0,0,1-1.31-.88,1.35,1.35,0,0,1-.53-.91,6.74,6.74,0,0,1,.15-1.86C639.54,260.14,640.07,259.58,641,259Zm9.79,49.4a3.06,3.06,0,0,1-.3,1.42,6.78,6.78,0,0,1-1.25,1.73,14,14,0,0,1-2.8-.15,4.77,4.77,0,0,1-2.25-1,5.28,5.28,0,0,1-1.55-2.23,12.78,12.78,0,0,1-.69-4,15.29,15.29,0,0,0-.43-3,15.42,15.42,0,0,1-.44-3,66.64,66.64,0,0,0-.87-8.55,64.7,64.7,0,0,1-.88-8.54,3.16,3.16,0,0,1,1.39-2.89,11.92,11.92,0,0,1,1.66-.46l1.75-.39a4.13,4.13,0,0,1,1.9.94c.43.43.83.84,1.2,1.24q-.06.88-.06,1.77t0,1.86q.13,3.35.64,7.13t1.09,7.21q.58,3.44,1.09,6.24c.35,1.87.59,3.31.75,4.3Z"/>
      <path class="cls-4" d="M663.6,297.46a9.14,9.14,0,0,0,1.86-3.26c.44-1.32.88-2.57,1.3-3.77l.16-.54a34.43,34.43,0,0,1,1.45-3.55,27.8,27.8,0,0,1,2.31-4.07,16.66,16.66,0,0,1,3-3.35,5.52,5.52,0,0,1,3.39-1.47,4.37,4.37,0,0,1,2.31,1.32,7.35,7.35,0,0,1,1.23,2.12c.3.79.57,1.6.81,2.44a12.6,12.6,0,0,0,.94,2.4,25.64,25.64,0,0,1,1.94,5.4c.46,1.93.87,3.89,1.21,5.88s.74,3.95,1.17,5.88a25,25,0,0,0,1.81,5.32,2.57,2.57,0,0,1-1.46,2.14,5.75,5.75,0,0,1-2.4.76,2.94,2.94,0,0,1-2.53-1.09,8.87,8.87,0,0,1-1.48-2.86,22.43,22.43,0,0,1-.85-3.55,20.14,20.14,0,0,0-.7-3.06,23.63,23.63,0,0,1-.85-3.37c-.23-1.26-.48-2.54-.77-3.82s-.62-2.48-1-3.59a7.46,7.46,0,0,0-1.48-2.68,36.54,36.54,0,0,0-2.24,4.56c-.57,1.41-1.07,2.76-1.52,4s-.89,2.54-1.31,3.77a28.3,28.3,0,0,1-1.61,3.74,29,29,0,0,1-2.4,4.07,10.27,10.27,0,0,1-2,2.16,4.51,4.51,0,0,1-1.82.87,10.24,10.24,0,0,1-1.67.2,4,4,0,0,1-2.2-.79,2.53,2.53,0,0,1-1.37-2.07q-.22-5.56-.38-10.33T656,287.24c0-1-.11-2-.21-3s-.17-2-.21-3.05a5.59,5.59,0,0,1,.31-2.09,2.58,2.58,0,0,1,1.31-1.51,9.68,9.68,0,0,0,1.06-.09c.35,0,.67-.07,1-.08a2.42,2.42,0,0,1,1.83.59,3.9,3.9,0,0,1,1,1.59,9.46,9.46,0,0,1,.48,2c.09.7.14,1.29.16,1.76a8,8,0,0,0,.3,1.85,7.3,7.3,0,0,1,.29,1.84c.09,2.18.14,4,.14,5.57s0,3,.09,4.42Z"/>
      <path class="cls-4" d="M693.44,252.55a11.18,11.18,0,0,1,.17-2.31l1.13-.62a2.74,2.74,0,0,1,1.14-.26,4.88,4.88,0,0,1,2.45.43,3.86,3.86,0,0,1,1.46,1.26,5.21,5.21,0,0,1,.74,1.79,12.5,12.5,0,0,1,.26,2c.05,1.23.12,2.31.22,3.22s.16,1.8.19,2.69.06,1.87.07,2.78,0,1.84.07,2.78c0,.65,0,1.33,0,2s0,1.44,0,2.21a4.66,4.66,0,0,0,.12,1c.07.3.34.43.82.41a9.84,9.84,0,0,0,4-.91,9.93,9.93,0,0,1,4-.91,1.66,1.66,0,0,1,1.72.9,4.76,4.76,0,0,1,.52,1.92,2.83,2.83,0,0,1-.46,1.84,3.4,3.4,0,0,1-1.28,1.06,9.52,9.52,0,0,1-1.7.65c-.61.17-1.21.36-1.79.56a14,14,0,0,1-1.87.74,13.93,13.93,0,0,0-2.05.83,5.71,5.71,0,0,0-1.63,1.22,2.39,2.39,0,0,0-.63,1.79,9.77,9.77,0,0,0,.09,1.15c0,.35.07.7.09,1.06s0,.72,0,1.1,0,.78,0,1.2a62.35,62.35,0,0,0,.91,8.23q.75,4.26,1.62,8.2c.2.82.44,1.64.71,2.45a8.5,8.5,0,0,1,.45,2.28,2.77,2.77,0,0,1-.71,2.24,4.35,4.35,0,0,1-1.72,1.05c-.59.14-.94.21-1.05.22a3.49,3.49,0,0,1-2.29-.75,7.48,7.48,0,0,1-1.81-2,17.75,17.75,0,0,1-.88-3.32c-.27-1.41-.45-2.69-.56-3.87-.29-2.88-.53-5.74-.7-8.6s-.35-5.72-.53-8.6a4.6,4.6,0,0,0-.07-.66,2.21,2.21,0,0,0-.25-.65,9.45,9.45,0,0,0-2.61.9,5.51,5.51,0,0,1-2.45.63,4.2,4.2,0,0,1-3-1,24.21,24.21,0,0,1-1.93-1.78,8.83,8.83,0,0,1,.34-2.49,11.92,11.92,0,0,1,2.09-.7l1.89-.43c.61-.14,1.24-.32,1.88-.52a10.25,10.25,0,0,0,2.08-1q1.41-.06,1.59-1.17a9.79,9.79,0,0,0,.14-1.91c0-1.06-.09-2-.15-2.69s-.12-1.78-.17-3.13c0-.88-.09-1.78-.15-2.69s-.12-1.81-.16-2.69Z"/>
    </g>
  </g>
  <g id="Laag_3" data-name="Laag 3">
    <g>
      <path class="cls-5" d="M89.68,1244.19H79.2v-3.25h24.51v3.25H93.24v27.94H89.68Z"/>
      <path class="cls-5" d="M109.72,1239.6h3.43v13.5a8.74,8.74,0,0,1,7.89-4.5c5.57,0,8.82,3.75,8.82,9.23v14.3h-3.43v-13.46c0-4.27-2.32-7-6.37-7s-6.91,2.9-6.91,7.22v13.19h-3.43Z"/>
      <path class="cls-5" d="M137.25,1240.27h3.92v3.79h-3.92Zm.22,8.82h3.43v23h-3.43Z"/>
      <path class="cls-5" d="M147,1269.19l1.74-2.45a13.47,13.47,0,0,0,8,2.94c2.76,0,4.76-1.43,4.76-3.66v-.08c0-2.32-2.71-3.21-5.75-4.06-3.6-1-7.61-2.27-7.61-6.5v-.09c0-4,3.29-6.6,7.84-6.6a15.77,15.77,0,0,1,8.29,2.54l-1.56,2.59a13,13,0,0,0-6.82-2.23c-2.72,0-4.46,1.42-4.46,3.34v.09c0,2.18,2.86,3,5.93,4,3.56,1.06,7.4,2.45,7.4,6.59v.09c0,4.36-3.61,6.9-8.2,6.9A15.88,15.88,0,0,1,147,1269.19Z"/>
      <path class="cls-5" d="M182.69,1265.45v-.09c0-4.95,4-7.53,9.85-7.53a24.12,24.12,0,0,1,7,1v-.72c0-4.09-2.5-6.23-6.82-6.23a16,16,0,0,0-7,1.64l-1-2.8a18.86,18.86,0,0,1,8.38-2c3.25,0,5.79.89,7.44,2.54a9.11,9.11,0,0,1,2.4,6.77v14.08h-3.38v-3.43a10.12,10.12,0,0,1-8.29,3.92C187,1272.62,182.69,1270.17,182.69,1265.45Zm16.93-1.79v-2.14a23.67,23.67,0,0,0-6.73-1c-4.28,0-6.73,1.88-6.73,4.64v.09c0,2.89,2.68,4.59,5.8,4.59C196.19,1269.86,199.62,1267.32,199.62,1263.66Z"/>
      <path class="cls-5" d="M210.22,1249.09h3.43v4.64c1.87-2.77,4.59-5.13,8.82-5.13,5.53,0,11,4.37,11,11.94v.09c0,7.53-5.44,12-11,12a10.4,10.4,0,0,1-8.82-4.9v11.54h-3.43ZM230,1260.68v-.09c0-5.44-3.74-8.91-8.11-8.91a8.59,8.59,0,0,0-8.33,8.86v.09a8.57,8.57,0,0,0,8.33,8.91C226.31,1269.54,230,1266.25,230,1260.68Z"/>
      <path class="cls-5" d="M239.8,1249.09h3.43v4.64c1.87-2.77,4.59-5.13,8.82-5.13,5.53,0,11,4.37,11,11.94v.09c0,7.53-5.44,12-11,12a10.4,10.4,0,0,1-8.82-4.9v11.54H239.8Zm19.74,11.59v-.09c0-5.44-3.74-8.91-8.11-8.91a8.59,8.59,0,0,0-8.33,8.86v.09a8.57,8.57,0,0,0,8.33,8.91C255.88,1269.54,259.54,1266.25,259.54,1260.68Z"/>
      <path class="cls-5" d="M282.74,1249.09h3.44v4a8.72,8.72,0,0,1,7.88-4.5c5.57,0,8.82,3.75,8.82,9.23v14.3h-3.43v-13.46c0-4.27-2.31-7-6.37-7s-6.9,2.9-6.9,7.22v13.19h-3.44Z"/>
      <path class="cls-5" d="M320.35,1269.68a9.53,9.53,0,0,0,7.26-3.25l2.14,1.91a11.88,11.88,0,0,1-9.49,4.32c-6.33,0-11.5-4.85-11.5-12,0-6.68,4.68-12,11.05-12,6.82,0,10.74,5.44,10.74,12.21a11.57,11.57,0,0,1-.05,1.2H312.24A8.05,8.05,0,0,0,320.35,1269.68Zm6.72-10.43c-.4-4.19-2.8-7.75-7.35-7.75-4,0-7,3.3-7.48,7.75Z"/>
      <path class="cls-5" d="M346.72,1269.68a9.53,9.53,0,0,0,7.26-3.25l2.14,1.91a11.87,11.87,0,0,1-9.49,4.32c-6.33,0-11.5-4.85-11.5-12,0-6.68,4.68-12,11.05-12,6.82,0,10.74,5.44,10.74,12.21,0,.31,0,.67,0,1.2H338.61A8.05,8.05,0,0,0,346.72,1269.68Zm6.73-10.43c-.4-4.19-2.81-7.75-7.35-7.75-4,0-7,3.3-7.49,7.75Z"/>
      <path class="cls-5" d="M361.6,1260.68v-.09c0-7.53,5.48-12,11-12a10.39,10.39,0,0,1,8.82,4.9v-13.9h3.43v32.53h-3.43v-4.63c-1.87,2.76-4.59,5.12-8.82,5.12C367.08,1272.62,361.6,1268.25,361.6,1260.68Zm20,0v-.09a8.56,8.56,0,0,0-8.34-8.86c-4.45,0-8.11,3.3-8.11,8.86v.09c0,5.44,3.75,8.91,8.11,8.91A8.6,8.6,0,0,0,381.56,1260.63Z"/>
      <path class="cls-5" d="M390.6,1269.19l1.73-2.45a13.49,13.49,0,0,0,8,2.94c2.76,0,4.77-1.43,4.77-3.66v-.08c0-2.32-2.72-3.21-5.75-4.06-3.61-1-7.62-2.27-7.62-6.5v-.09c0-4,3.3-6.6,7.84-6.6a15.74,15.74,0,0,1,8.29,2.54l-1.56,2.59a13,13,0,0,0-6.82-2.23c-2.72,0-4.45,1.42-4.45,3.34v.09c0,2.18,2.85,3,5.92,4,3.57,1.06,7.4,2.45,7.4,6.59v.09c0,4.36-3.61,6.9-8.2,6.9A15.83,15.83,0,0,1,390.6,1269.19Z"/>
      <path class="cls-5" d="M426.64,1260.72v-.09a12,12,0,0,1,21-7.93l-2.28,2.41c-1.82-1.92-3.87-3.48-7-3.48-4.68,0-8.25,4-8.25,8.91v.09c0,5,3.66,9,8.47,9a9.51,9.51,0,0,0,7-3.43l2.18,2a11.91,11.91,0,0,1-21.2-7.49Z"/>
      <path class="cls-5" d="M452.07,1260.72v-.09a12,12,0,0,1,24-.09v.09a12,12,0,0,1-12.08,12A11.8,11.8,0,0,1,452.07,1260.72Zm20.5,0v-.09a8.72,8.72,0,0,0-8.56-9c-5,0-8.42,4.06-8.42,8.91v.09a8.65,8.65,0,0,0,8.51,9C469.09,1269.59,472.57,1265.58,472.57,1260.72Z"/>
      <path class="cls-5" d="M482.28,1249.09h3.43v4a8.72,8.72,0,0,1,7.88-4.5c5.57,0,8.83,3.75,8.83,9.23v14.3H499v-13.46c0-4.27-2.31-7-6.37-7s-6.9,2.9-6.9,7.22v13.19h-3.43Z"/>
      <path class="cls-5" d="M509.72,1249.09h3.43v4a8.73,8.73,0,0,1,7.89-4.5c5.57,0,8.82,3.75,8.82,9.23v14.3h-3.43v-13.46c0-4.27-2.32-7-6.37-7s-6.91,2.9-6.91,7.22v13.19h-3.43Z"/>
      <path class="cls-5" d="M547.32,1269.68a9.53,9.53,0,0,0,7.26-3.25l2.14,1.91a11.87,11.87,0,0,1-9.49,4.32c-6.33,0-11.49-4.85-11.49-12,0-6.68,4.67-12,11-12,6.81,0,10.73,5.44,10.73,12.21,0,.31,0,.67,0,1.2H539.21A8.06,8.06,0,0,0,547.32,1269.68Zm6.73-10.43c-.4-4.19-2.81-7.75-7.35-7.75-4,0-7,3.3-7.49,7.75Z"/>
      <path class="cls-5" d="M562.11,1260.72v-.09a12,12,0,0,1,21-7.93l-2.27,2.41c-1.83-1.92-3.88-3.48-7-3.48-4.68,0-8.24,4-8.24,8.91v.09c0,5,3.65,9,8.46,9a9.5,9.5,0,0,0,7-3.43l2.19,2a11.92,11.92,0,0,1-21.21-7.49Z"/>
      <path class="cls-5" d="M590.17,1266v-13.9H587v-3h3.2v-6.95h3.43v6.95h7.31v3H593.6v13.46c0,2.81,1.56,3.83,3.88,3.83a7.18,7.18,0,0,0,3.34-.8v2.94a8.64,8.64,0,0,1-4.14,1C593,1272.53,590.17,1270.7,590.17,1266Z"/>
      <path class="cls-5" d="M607.06,1240.27H611v3.79h-3.92Zm.22,8.82h3.43v23h-3.43Z"/>
      <path class="cls-5" d="M617.26,1260.72v-.09a12,12,0,0,1,24-.09v.09a12,12,0,0,1-12.07,12A11.79,11.79,0,0,1,617.26,1260.72Zm20.49,0v-.09a8.71,8.71,0,0,0-8.55-9c-5,0-8.42,4.06-8.42,8.91v.09a8.64,8.64,0,0,0,8.51,9C634.28,1269.59,637.75,1265.58,637.75,1260.72Z"/>
      <path class="cls-5" d="M647.46,1249.09h3.43v4a8.74,8.74,0,0,1,7.89-4.5c5.57,0,8.82,3.75,8.82,9.23v14.3h-3.43v-13.46c0-4.27-2.32-7-6.37-7s-6.91,2.9-6.91,7.22v13.19h-3.43Z"/>
      <path class="cls-5" d="M689.47,1266v-13.9h-3.21v-3h3.21v-6.95h3.43v6.95h7.31v3H692.9v13.46c0,2.81,1.56,3.83,3.88,3.83a7.18,7.18,0,0,0,3.34-.8v2.94a8.64,8.64,0,0,1-4.14,1C692.28,1272.53,689.47,1270.7,689.47,1266Z"/>
      <path class="cls-5" d="M704.84,1260.72v-.09a12,12,0,0,1,24-.09v.09a12,12,0,0,1-12.08,12A11.8,11.8,0,0,1,704.84,1260.72Zm20.5,0v-.09a8.72,8.72,0,0,0-8.56-9c-5,0-8.42,4.06-8.42,8.91v.09a8.64,8.64,0,0,0,8.51,9C721.86,1269.59,725.34,1265.58,725.34,1260.72Z"/>
      <path class="cls-5" d="M748.5,1240.27h3.92v3.79H748.5Zm.22,8.82h3.43v23h-3.43Z"/>
      <path class="cls-5" d="M760.13,1249.09h3.43v4a8.72,8.72,0,0,1,7.88-4.5c5.57,0,8.82,3.75,8.82,9.23v14.3h-3.43v-13.46c0-4.27-2.31-7-6.37-7s-6.9,2.9-6.9,7.22v13.19h-3.43Z"/>
      <path class="cls-5" d="M788.77,1266v-13.9h-3.21v-3h3.21v-6.95h3.43v6.95h7.31v3H792.2v13.46c0,2.81,1.56,3.83,3.88,3.83a7.21,7.21,0,0,0,3.34-.8v2.94a8.69,8.69,0,0,1-4.15,1C791.58,1272.53,788.77,1270.7,788.77,1266Z"/>
      <path class="cls-5" d="M815.72,1269.68a9.55,9.55,0,0,0,7.27-3.25l2.13,1.91a11.86,11.86,0,0,1-9.49,4.32c-6.32,0-11.49-4.85-11.49-12,0-6.68,4.68-12,11.05-12,6.82,0,10.74,5.44,10.74,12.21a11.57,11.57,0,0,1,0,1.2H807.61A8.06,8.06,0,0,0,815.72,1269.68Zm6.73-10.43c-.4-4.19-2.81-7.75-7.35-7.75-4,0-7,3.3-7.49,7.75Z"/>
      <path class="cls-5" d="M831.94,1249.09h3.43v6c1.69-3.83,5-6.6,9.4-6.42v3.7h-.27c-5,0-9.13,3.61-9.13,10.56v9.18h-3.43Z"/>
      <path class="cls-5" d="M850,1249.09h3.43v4a8.74,8.74,0,0,1,7.89-4.5c5.57,0,8.82,3.75,8.82,9.23v14.3h-3.43v-13.46c0-4.27-2.32-7-6.37-7s-6.91,2.9-6.91,7.22v13.19H850Z"/>
      <path class="cls-5" d="M887.58,1269.68a9.53,9.53,0,0,0,7.26-3.25l2.14,1.91a11.87,11.87,0,0,1-9.49,4.32c-6.33,0-11.49-4.85-11.49-12,0-6.68,4.67-12,11-12,6.81,0,10.73,5.44,10.73,12.21,0,.31,0,.67,0,1.2H879.47A8.05,8.05,0,0,0,887.58,1269.68Zm6.73-10.43c-.4-4.19-2.81-7.75-7.35-7.75-4,0-7,3.3-7.49,7.75Z"/>
      <path class="cls-5" d="M905,1266v-13.9h-3.21v-3H905v-6.95h3.43v6.95h7.3v3h-7.3v13.46c0,2.81,1.56,3.83,3.87,3.83a7.25,7.25,0,0,0,3.35-.8v2.94a8.71,8.71,0,0,1-4.15,1C907.8,1272.53,905,1270.7,905,1266Z"/>
      <path class="cls-5" d="M921.39,1267.45h4.1v4.68h-4.1Z"/>
      <path class="cls-5" d="M124.18,1313.25l-13-18.85h4.28L126,1310l10.61-15.59h4.1l-13,18.8v12.39h-3.56Z"/>
      <path class="cls-5" d="M144.31,1314.18v-.09a12,12,0,0,1,24-.09v.09a12,12,0,0,1-12.08,12A11.8,11.8,0,0,1,144.31,1314.18Zm20.5,0v-.09a8.72,8.72,0,0,0-8.56-9c-5,0-8.42,4.06-8.42,8.91v.09a8.64,8.64,0,0,0,8.51,9C161.33,1323.05,164.81,1319,164.81,1314.18Z"/>
      <path class="cls-5" d="M174.16,1316.85v-14.3h3.43V1316c0,4.28,2.32,7,6.37,7s6.91-2.9,6.91-7.22v-13.19h3.38v23h-3.38v-4a8.79,8.79,0,0,1-7.89,4.5C177.41,1326.08,174.16,1322.33,174.16,1316.85Z"/>
      <path class="cls-5" d="M213.9,1314.18v-.09a12,12,0,0,1,21-7.93l-2.28,2.41c-1.82-1.92-3.87-3.48-7-3.48-4.68,0-8.24,4-8.24,8.91v.09c0,5,3.65,9,8.46,9a9.51,9.51,0,0,0,7-3.43l2.18,2.05a11.91,11.91,0,0,1-21.2-7.49Z"/>
      <path class="cls-5" d="M239,1318.9v-.08c0-5,4-7.53,9.85-7.53a24.12,24.12,0,0,1,7,1v-.72c0-4.1-2.5-6.23-6.82-6.23a16,16,0,0,0-7,1.64l-1-2.8a18.86,18.86,0,0,1,8.38-2c3.25,0,5.79.89,7.44,2.54a9.11,9.11,0,0,1,2.4,6.77v14.08h-3.38v-3.43a10.1,10.1,0,0,1-8.29,3.92C243.3,1326.08,239,1323.63,239,1318.9Zm16.93-1.78V1315a23.67,23.67,0,0,0-6.73-1c-4.27,0-6.72,1.87-6.72,4.64v.09c0,2.89,2.67,4.59,5.79,4.59C252.52,1323.32,256,1320.78,256,1317.12Z"/>
      <path class="cls-5" d="M266.55,1302.55H270v4a8.74,8.74,0,0,1,7.89-4.5c5.57,0,8.82,3.75,8.82,9.23v14.3h-3.43v-13.46c0-4.28-2.32-7-6.37-7s-6.91,2.9-6.91,7.22v13.19h-3.43Z"/>
      <path class="cls-5" d="M307.36,1293.06h3.43v13.5a8.73,8.73,0,0,1,7.89-4.5c5.57,0,8.82,3.75,8.82,9.23v14.3h-3.43v-13.46c0-4.28-2.32-7-6.37-7s-6.91,2.9-6.91,7.22v13.19h-3.43Z"/>
      <path class="cls-5" d="M333.38,1314.18v-.09a12,12,0,0,1,24-.09v.09a12,12,0,0,1-12.07,12A11.79,11.79,0,0,1,333.38,1314.18Zm20.49,0v-.09a8.72,8.72,0,0,0-8.55-9c-5,0-8.42,4.06-8.42,8.91v.09a8.64,8.64,0,0,0,8.51,9C350.4,1323.05,353.87,1319,353.87,1314.18Z"/>
      <path class="cls-5" d="M361.62,1302.55h3.65l6.06,18.49,6.19-18.58h2.86l6.23,18.58,6.06-18.49h3.57l-8.11,23.22h-3L379,1307.59l-6.24,18.18h-3Z"/>
      <path class="cls-5" d="M412.09,1323.14a9.54,9.54,0,0,0,7.27-3.26l2.14,1.92a11.91,11.91,0,0,1-9.49,4.32c-6.33,0-11.5-4.85-11.5-12,0-6.68,4.68-12,11.05-12,6.82,0,10.74,5.44,10.74,12.21a11.57,11.57,0,0,1-.05,1.2H404A8,8,0,0,0,412.09,1323.14Zm6.73-10.43c-.4-4.19-2.8-7.75-7.35-7.75-4,0-7,3.3-7.48,7.75Z"/>
      <path class="cls-5" d="M426,1302.55h3.78l7.76,19.12,7.79-19.12h3.7l-10,23.22h-3Z"/>
      <path class="cls-5" d="M464.62,1323.14a9.54,9.54,0,0,0,7.26-3.26l2.14,1.92a11.91,11.91,0,0,1-9.49,4.32c-6.33,0-11.5-4.85-11.5-12,0-6.68,4.68-12,11.05-12,6.82,0,10.74,5.44,10.74,12.21,0,.31,0,.67,0,1.2H456.51A8.05,8.05,0,0,0,464.62,1323.14Zm6.73-10.43c-.41-4.19-2.81-7.75-7.36-7.75-4,0-7,3.3-7.48,7.75Z"/>
      <path class="cls-5" d="M480.83,1302.55h3.43v6c1.7-3.83,5-6.6,9.4-6.42v3.7h-.26c-5,0-9.14,3.61-9.14,10.56v9.18h-3.43Z"/>
      <path class="cls-5" d="M512.24,1302.55h3.43v3.88c1.51-2.27,3.56-4.37,7.44-4.37a7.84,7.84,0,0,1,7.4,4.59,9.15,9.15,0,0,1,8.1-4.59c5.31,0,8.56,3.57,8.56,9.27v14.26h-3.43v-13.46c0-4.45-2.23-7-6-7-3.48,0-6.37,2.59-6.37,7.13v13.28H528V1312c0-4.32-2.27-6.86-5.93-6.86s-6.41,3-6.41,7.26v13.15h-3.43Z"/>
      <path class="cls-5" d="M552.86,1318.9v-.08c0-5,4-7.53,9.85-7.53a24.12,24.12,0,0,1,7,1v-.72c0-4.1-2.49-6.23-6.81-6.23a16,16,0,0,0-7,1.64l-1-2.8a18.86,18.86,0,0,1,8.38-2c3.25,0,5.79.89,7.44,2.54a9.08,9.08,0,0,1,2.41,6.77v14.08h-3.39v-3.43a10.09,10.09,0,0,1-8.29,3.92C557.14,1326.08,552.86,1323.63,552.86,1318.9Zm16.94-1.78V1315a23.73,23.73,0,0,0-6.73-1c-4.28,0-6.73,1.87-6.73,4.64v.09c0,2.89,2.67,4.59,5.79,4.59C566.37,1323.32,569.8,1320.78,569.8,1317.12Z"/>
      <path class="cls-5" d="M580.4,1293.06h3.43v22.46l12.43-13h4.28l-9.67,9.89,10,13.15h-4.1l-8.24-10.74-4.68,4.72v6H580.4Z"/>
      <path class="cls-5" d="M615.9,1323.14a9.56,9.56,0,0,0,7.27-3.26l2.13,1.92a11.89,11.89,0,0,1-9.49,4.32c-6.32,0-11.49-4.85-11.49-12,0-6.68,4.68-12,11-12,6.82,0,10.74,5.44,10.74,12.21a11.57,11.57,0,0,1-.05,1.2H607.79A8.06,8.06,0,0,0,615.9,1323.14Zm6.73-10.43c-.4-4.19-2.81-7.75-7.35-7.75-4,0-7,3.3-7.49,7.75Z"/>
      <path class="cls-5" d="M643.74,1318.9v-.08c0-5,4-7.53,9.85-7.53a24.12,24.12,0,0,1,7,1v-.72c0-4.1-2.49-6.23-6.82-6.23a16,16,0,0,0-7,1.64l-1-2.8a18.86,18.86,0,0,1,8.38-2c3.25,0,5.79.89,7.44,2.54a9.12,9.12,0,0,1,2.41,6.77v14.08h-3.39v-3.43a10.09,10.09,0,0,1-8.29,3.92C648,1326.08,643.74,1323.63,643.74,1318.9Zm16.94-1.78V1315a23.78,23.78,0,0,0-6.73-1c-4.28,0-6.73,1.87-6.73,4.64v.09c0,2.89,2.67,4.59,5.79,4.59C657.24,1323.32,660.68,1320.78,660.68,1317.12Z"/>
      <path class="cls-5" d="M684.64,1302.55h3.43v4.64c1.87-2.77,4.59-5.13,8.82-5.13,5.53,0,11,4.37,11,11.94v.09c0,7.53-5.44,12-11,12a10.39,10.39,0,0,1-8.82-4.9v11.54h-3.43Zm19.74,11.59v-.09c0-5.44-3.75-8.91-8.11-8.91a8.59,8.59,0,0,0-8.33,8.86v.09a8.57,8.57,0,0,0,8.33,8.91C700.72,1323,704.38,1319.71,704.38,1314.14Z"/>
      <path class="cls-5" d="M714.31,1293.73h3.92v3.79h-3.92Zm.22,8.82H718v23h-3.43Z"/>
      <path class="cls-5" d="M724.51,1314.18v-.09a12,12,0,0,1,21-7.93l-2.27,2.41c-1.83-1.92-3.88-3.48-7-3.48-4.68,0-8.24,4-8.24,8.91v.09c0,5,3.65,9,8.46,9a9.48,9.48,0,0,0,7-3.43l2.19,2.05a11.92,11.92,0,0,1-21.21-7.49Z"/>
      <path class="cls-5" d="M752.58,1319.48v-13.9h-3.21v-3h3.21v-7H756v7h7.3v3H756V1319c0,2.8,1.56,3.83,3.87,3.83a7.18,7.18,0,0,0,3.34-.8V1325a8.64,8.64,0,0,1-4.14,1C755.38,1326,752.58,1324.16,752.58,1319.48Z"/>
      <path class="cls-5" d="M769,1316.85v-14.3h3.43V1316c0,4.28,2.32,7,6.37,7s6.91-2.9,6.91-7.22v-13.19h3.39v23h-3.39v-4a8.78,8.78,0,0,1-7.88,4.5C772.27,1326.08,769,1322.33,769,1316.85Z"/>
      <path class="cls-5" d="M796.81,1302.55h3.43v6c1.7-3.83,5-6.6,9.4-6.42v3.7h-.26c-5,0-9.14,3.61-9.14,10.56v9.18h-3.43Z"/>
      <path class="cls-5" d="M825,1323.14a9.52,9.52,0,0,0,7.26-3.26l2.14,1.92a11.89,11.89,0,0,1-9.49,4.32c-6.32,0-11.49-4.85-11.49-12,0-6.68,4.68-12,11.05-12,6.81,0,10.74,5.44,10.74,12.21a11.57,11.57,0,0,1-.05,1.2H816.9A8.06,8.06,0,0,0,825,1323.14Zm6.73-10.43c-.4-4.19-2.81-7.75-7.35-7.75-4,0-7,3.3-7.49,7.75Z"/>
      <path class="cls-5" d="M853.17,1314.18v-.09a12,12,0,0,1,24-.09v.09a12,12,0,0,1-12.07,12A11.79,11.79,0,0,1,853.17,1314.18Zm20.49,0v-.09a8.72,8.72,0,0,0-8.55-9c-5,0-8.42,4.06-8.42,8.91v.09a8.64,8.64,0,0,0,8.5,9C870.19,1323.05,873.66,1319,873.66,1314.18Z"/>
      <path class="cls-5" d="M884.66,1305.58H881.5v-3h3.16v-2a8.08,8.08,0,0,1,2-5.92,6.76,6.76,0,0,1,4.94-1.79,10.42,10.42,0,0,1,3.79.58v3a11.34,11.34,0,0,0-3.34-.58c-2.68,0-4,1.6-4,4.9v1.87h7.3v2.94h-7.26v20h-3.43Z"/>
      <path class="cls-5" d="M61.36,1385.15l1.16-2.72a7.22,7.22,0,0,0,3.61.85c2.05,0,3.34-1.07,4.72-4.32l-10.47-23h3.79l8.38,19.2,7.39-19.2H83.6l-9.67,23.79c-2,4.77-4.19,6.51-7.66,6.51A10.46,10.46,0,0,1,61.36,1385.15Z"/>
      <path class="cls-5" d="M87.6,1367.64v-.09a12,12,0,0,1,24-.09v.09a12,12,0,0,1-12.08,12A11.8,11.8,0,0,1,87.6,1367.64Zm20.5,0v-.09a8.72,8.72,0,0,0-8.56-9c-5,0-8.42,4.06-8.42,8.91v.09a8.65,8.65,0,0,0,8.51,9C104.62,1376.51,108.1,1372.5,108.1,1367.64Z"/>
      <path class="cls-5" d="M117.45,1370.31V1356h3.43v13.46c0,4.27,2.32,7,6.37,7s6.91-2.9,6.91-7.22V1356h3.39v23h-3.39v-4a8.79,8.79,0,0,1-7.89,4.5C120.7,1379.54,117.45,1375.79,117.45,1370.31Z"/>
      <path class="cls-5" d="M145.25,1356h3.43v6c1.69-3.84,5-6.6,9.4-6.42v3.7h-.27c-5,0-9.13,3.61-9.13,10.56v9.18h-3.43Z"/>
      <path class="cls-5" d="M174.74,1376.11l1.74-2.45a13.44,13.44,0,0,0,8,2.94c2.77,0,4.77-1.43,4.77-3.66v-.09c0-2.31-2.72-3.2-5.75-4-3.61-1-7.62-2.27-7.62-6.51v-.09c0-4,3.3-6.59,7.84-6.59a15.74,15.74,0,0,1,8.29,2.54l-1.56,2.58a13,13,0,0,0-6.81-2.22c-2.72,0-4.46,1.42-4.46,3.34v.09c0,2.18,2.85,3,5.93,4,3.56,1.07,7.39,2.45,7.39,6.6v.09c0,4.36-3.61,6.9-8.2,6.9A15.86,15.86,0,0,1,174.74,1376.11Z"/>
      <path class="cls-5" d="M200,1372.94V1359h-3.2v-3H200v-7h3.43v7h7.31v3h-7.31v13.46c0,2.8,1.56,3.83,3.88,3.83a7.18,7.18,0,0,0,3.34-.8v2.94a8.64,8.64,0,0,1-4.14,1C202.85,1379.45,200,1377.62,200,1372.94Z"/>
      <path class="cls-5" d="M215.1,1372.36v-.09c0-4.94,4-7.53,9.85-7.53a24.46,24.46,0,0,1,7,1V1365c0-4.1-2.5-6.24-6.82-6.24a16,16,0,0,0-7,1.65l-1-2.8a18.86,18.86,0,0,1,8.38-2c3.25,0,5.79.89,7.44,2.53a9.15,9.15,0,0,1,2.4,6.78v14.08H232v-3.43a10.15,10.15,0,0,1-8.29,3.92C219.38,1379.54,215.1,1377.09,215.1,1372.36Zm16.93-1.78v-2.14a23.67,23.67,0,0,0-6.73-1c-4.28,0-6.73,1.87-6.73,4.64v.08c0,2.9,2.68,4.59,5.8,4.59C228.6,1376.77,232,1374.23,232,1370.58Z"/>
      <path class="cls-5" d="M242.63,1356h3.43v3.88c1.52-2.27,3.57-4.37,7.44-4.37a7.83,7.83,0,0,1,7.4,4.59,9.18,9.18,0,0,1,8.11-4.59c5.3,0,8.55,3.56,8.55,9.27v14.26h-3.43v-13.46c0-4.46-2.23-6.95-6-6.95-3.47,0-6.37,2.58-6.37,7.13v13.28H258.4V1365.5c0-4.32-2.27-6.86-5.92-6.86s-6.42,3-6.42,7.26v13.15h-3.43Z"/>
      <path class="cls-5" d="M285,1356h3.43v4.64c1.87-2.77,4.59-5.13,8.82-5.13,5.52,0,11,4.37,11,11.94v.09c0,7.53-5.43,12-11,12a10.39,10.39,0,0,1-8.82-4.9v11.53H285Zm19.73,11.59v-.09c0-5.44-3.74-8.92-8.1-8.92a8.6,8.6,0,0,0-8.34,8.87v.09a8.57,8.57,0,0,0,8.34,8.91C301.08,1376.46,304.73,1373.16,304.73,1367.6Z"/>
      <path class="cls-5" d="M324.73,1376.6a9.54,9.54,0,0,0,7.27-3.26l2.14,1.92a11.91,11.91,0,0,1-9.49,4.32c-6.33,0-11.5-4.86-11.5-12,0-6.68,4.68-12,11.05-12,6.82,0,10.74,5.44,10.74,12.21a11.57,11.57,0,0,1-.05,1.2H316.63A8,8,0,0,0,324.73,1376.6Zm6.73-10.43c-.4-4.19-2.8-7.75-7.35-7.75-4,0-7,3.29-7.48,7.75Z"/>
      <path class="cls-5" d="M339.61,1367.6v-.09c0-7.53,5.48-12,11-12a10.39,10.39,0,0,1,8.82,4.9v-13.9h3.43v32.53h-3.43v-4.64c-1.87,2.76-4.59,5.13-8.82,5.13C345.09,1379.54,339.61,1375.17,339.61,1367.6Zm20,0v-.09a8.56,8.56,0,0,0-8.33-8.87c-4.45,0-8.11,3.3-8.11,8.87v.09c0,5.44,3.75,8.91,8.11,8.91A8.6,8.6,0,0,0,359.57,1367.55Z"/>
      <path class="cls-5" d="M383.89,1356h3.43v6c1.7-3.84,5-6.6,9.41-6.42v3.7h-.27c-5,0-9.14,3.61-9.14,10.56v9.18h-3.43Z"/>
      <path class="cls-5" d="M412.09,1376.6a9.54,9.54,0,0,0,7.27-3.26l2.14,1.92a11.91,11.91,0,0,1-9.49,4.32c-6.33,0-11.5-4.86-11.5-12,0-6.68,4.68-12,11.05-12,6.82,0,10.74,5.44,10.74,12.21a11.57,11.57,0,0,1-.05,1.2H404A8,8,0,0,0,412.09,1376.6Zm6.73-10.43c-.4-4.19-2.8-7.75-7.35-7.75-4,0-7,3.29-7.48,7.75Z"/>
      <path class="cls-5" d="M426.88,1367.64v-.09a12,12,0,0,1,21-7.93l-2.27,2.41c-1.83-1.92-3.87-3.48-7-3.48-4.68,0-8.25,4-8.25,8.91v.09c0,5,3.66,9,8.47,9a9.51,9.51,0,0,0,7-3.43l2.18,2.05a11.92,11.92,0,0,1-21.21-7.49Z"/>
      <path class="cls-5" d="M463.9,1376.6a9.54,9.54,0,0,0,7.27-3.26l2.14,1.92a11.91,11.91,0,0,1-9.49,4.32c-6.33,0-11.5-4.86-11.5-12,0-6.68,4.68-12,11.05-12,6.82,0,10.74,5.44,10.74,12.21a11.57,11.57,0,0,1-.05,1.2H455.8A8,8,0,0,0,463.9,1376.6Zm6.73-10.43c-.4-4.19-2.8-7.75-7.35-7.75-4,0-7,3.29-7.48,7.75Z"/>
      <path class="cls-5" d="M480.21,1347.19h3.92V1351h-3.92Zm.22,8.82h3.43v23h-3.43Z"/>
      <path class="cls-5" d="M491.83,1356h3.44v4.64c1.87-2.77,4.58-5.13,8.82-5.13,5.52,0,11,4.37,11,11.94v.09c0,7.53-5.43,12-11,12a10.39,10.39,0,0,1-8.82-4.9v11.53h-3.44Zm19.74,11.59v-.09c0-5.44-3.74-8.92-8.11-8.92a8.59,8.59,0,0,0-8.33,8.87v.09a8.57,8.57,0,0,0,8.33,8.91C507.92,1376.46,511.57,1373.16,511.57,1367.6Z"/>
      <path class="cls-5" d="M522.62,1372.94V1359h-3.21v-3h3.21v-7h3.43v7h7.3v3h-7.3v13.46c0,2.8,1.56,3.83,3.87,3.83a7.25,7.25,0,0,0,3.35-.8v2.94a8.71,8.71,0,0,1-4.15,1C525.42,1379.45,522.62,1377.62,522.62,1372.94Z"/>
      <path class="cls-5" d="M538.61,1366.26c0-8.2,4.41-14.62,12.34-19.07l1.47,2.27c-6.77,4.32-10.34,9.67-10.34,16.8s3.57,12.47,10.34,16.8l-1.47,2.27C543,1380.87,538.61,1374.46,538.61,1366.26Z"/>
      <path class="cls-5" d="M556.83,1376.11l1.74-2.45a13.44,13.44,0,0,0,8,2.94c2.77,0,4.77-1.43,4.77-3.66v-.09c0-2.31-2.72-3.2-5.75-4-3.61-1-7.62-2.27-7.62-6.51v-.09c0-4,3.3-6.59,7.84-6.59a15.74,15.74,0,0,1,8.29,2.54l-1.56,2.58a13,13,0,0,0-6.81-2.22c-2.72,0-4.46,1.42-4.46,3.34v.09c0,2.18,2.85,3,5.93,4,3.56,1.07,7.39,2.45,7.39,6.6v.09c0,4.36-3.61,6.9-8.2,6.9A15.86,15.86,0,0,1,556.83,1376.11Z"/>
      <path class="cls-5" d="M579.59,1383.06c6.78-4.33,10.34-9.67,10.34-16.8s-3.56-12.48-10.34-16.8l1.47-2.27c7.94,4.45,12.35,10.87,12.35,19.07s-4.41,14.61-12.35,19.07Z"/>
      <path class="cls-5" d="M614.83,1372.94V1359h-3.21v-3h3.21v-7h3.43v7h7.31v3h-7.31v13.46c0,2.8,1.56,3.83,3.88,3.83a7.18,7.18,0,0,0,3.34-.8v2.94a8.67,8.67,0,0,1-4.14,1C617.64,1379.45,614.83,1377.62,614.83,1372.94Z"/>
      <path class="cls-5" d="M630.2,1367.64v-.09a12,12,0,0,1,24-.09v.09a12,12,0,0,1-12.08,12A11.79,11.79,0,0,1,630.2,1367.64Zm20.5,0v-.09a8.72,8.72,0,0,0-8.56-9c-5,0-8.42,4.06-8.42,8.91v.09a8.64,8.64,0,0,0,8.51,9C647.22,1376.51,650.7,1372.5,650.7,1367.64Z"/>
      <path class="cls-5" d="M673.41,1370.31V1356h3.43v13.46c0,4.27,2.32,7,6.37,7s6.91-2.9,6.91-7.22V1356h3.39v23h-3.39v-4a8.79,8.79,0,0,1-7.89,4.5C676.66,1379.54,673.41,1375.79,673.41,1370.31Z"/>
      <path class="cls-5" d="M701.21,1356h3.43v4.64c1.87-2.77,4.59-5.13,8.82-5.13,5.53,0,11,4.37,11,11.94v.09c0,7.53-5.44,12-11,12a10.4,10.4,0,0,1-8.82-4.9v11.53h-3.43ZM721,1367.6v-.09c0-5.44-3.74-8.92-8.11-8.92a8.59,8.59,0,0,0-8.33,8.87v.09a8.57,8.57,0,0,0,8.33,8.91C717.29,1376.46,721,1373.16,721,1367.6Z"/>
      <path class="cls-5" d="M731.1,1346.52h3.43v32.53H731.1Z"/>
      <path class="cls-5" d="M741.08,1367.64v-.09a12,12,0,0,1,24-.09v.09a12,12,0,0,1-12.08,12A11.79,11.79,0,0,1,741.08,1367.64Zm20.5,0v-.09a8.72,8.72,0,0,0-8.56-9c-5,0-8.42,4.06-8.42,8.91v.09a8.64,8.64,0,0,0,8.51,9C758.1,1376.51,761.58,1372.5,761.58,1367.64Z"/>
      <path class="cls-5" d="M769.55,1372.36v-.09c0-4.94,4-7.53,9.84-7.53a24.46,24.46,0,0,1,7,1V1365c0-4.1-2.49-6.24-6.81-6.24a16,16,0,0,0-7,1.65l-1-2.8a18.85,18.85,0,0,1,8.37-2c3.26,0,5.8.89,7.44,2.53a9.12,9.12,0,0,1,2.41,6.78v14.08h-3.39v-3.43a10.11,10.11,0,0,1-8.28,3.92C773.82,1379.54,769.55,1377.09,769.55,1372.36Zm16.93-1.78v-2.14a23.73,23.73,0,0,0-6.73-1c-4.28,0-6.73,1.87-6.73,4.64v.08c0,2.9,2.68,4.59,5.79,4.59C783.05,1376.77,786.48,1374.23,786.48,1370.58Z"/>
      <path class="cls-5" d="M795.74,1367.6v-.09c0-7.53,5.48-12,11-12a10.4,10.4,0,0,1,8.82,4.9v-13.9H819v32.53h-3.43v-4.64c-1.87,2.76-4.59,5.13-8.82,5.13C801.22,1379.54,795.74,1375.17,795.74,1367.6Zm20,0v-.09a8.56,8.56,0,0,0-8.33-8.87c-4.45,0-8.11,3.3-8.11,8.87v.09c0,5.44,3.74,8.91,8.11,8.91A8.6,8.6,0,0,0,815.7,1367.55Z"/>
      <path class="cls-5" d="M840.33,1346.52h3.44v32.53h-3.44Z"/>
      <path class="cls-5" d="M850,1372.36v-.09c0-4.94,4-7.53,9.85-7.53a24.46,24.46,0,0,1,7,1V1365c0-4.1-2.5-6.24-6.82-6.24a16,16,0,0,0-7,1.65l-1-2.8a18.86,18.86,0,0,1,8.38-2c3.25,0,5.79.89,7.44,2.53a9.15,9.15,0,0,1,2.4,6.78v14.08h-3.38v-3.43a10.15,10.15,0,0,1-8.29,3.92C854.28,1379.54,850,1377.09,850,1372.36Zm16.93-1.78v-2.14a23.67,23.67,0,0,0-6.73-1c-4.27,0-6.72,1.87-6.72,4.64v.08c0,2.9,2.67,4.59,5.79,4.59C863.5,1376.77,866.93,1374.23,866.93,1370.58Z"/>
      <path class="cls-5" d="M878.73,1372.94V1359h-3.2v-3h3.2v-7h3.44v7h7.3v3h-7.3v13.46c0,2.8,1.56,3.83,3.87,3.83a7.18,7.18,0,0,0,3.34-.8v2.94a8.64,8.64,0,0,1-4.14,1C881.54,1379.45,878.73,1377.62,878.73,1372.94Z"/>
      <path class="cls-5" d="M905.69,1376.6a9.54,9.54,0,0,0,7.26-3.26l2.14,1.92a11.91,11.91,0,0,1-9.49,4.32c-6.33,0-11.5-4.86-11.5-12,0-6.68,4.68-12,11-12,6.82,0,10.74,5.44,10.74,12.21,0,.31,0,.67,0,1.2H897.58A8.05,8.05,0,0,0,905.69,1376.6Zm6.73-10.43c-.41-4.19-2.81-7.75-7.36-7.75-4,0-7,3.29-7.48,7.75Z"/>
      <path class="cls-5" d="M921.9,1356h3.43v6c1.7-3.84,5-6.6,9.4-6.42v3.7h-.26c-5,0-9.14,3.61-9.14,10.56v9.18H921.9Z"/>
      <path class="cls-5" d="M939.54,1374.37h4.1v4.68h-4.1Z"/>
    </g>
    <g class="cls-6">
      <path class="cls-7" d="M592.22,545.62a104.23,104.23,0,0,0,9.07,54.48c11.58-1.58,22.54-3.46,33.48-9.43-33.71-5.44-42.55-45-42.55-45"/>
    </g>
    <g>
      <path class="cls-4" d="M215.84,107.14l6.24-7.47c4.32,3.56,8.84,5.83,14.32,5.83,4.32,0,6.93-1.72,6.93-4.53v-.14c0-2.67-1.65-4-9.67-6.1-9.66-2.46-15.9-5.14-15.9-14.66v-.14c0-8.71,7-14.46,16.79-14.46a27.77,27.77,0,0,1,17.83,6.1l-5.49,8c-4.25-3-8.43-4.73-12.47-4.73s-6.17,1.85-6.17,4.18v.14c0,3.15,2.05,4.18,10.35,6.3,9.73,2.54,15.21,6,15.21,14.4v.13c0,9.53-7.26,14.88-17.61,14.88A30.54,30.54,0,0,1,215.84,107.14Z"/>
      <path class="cls-4" d="M260.12,96v-.14c0-10.55,8.5-19.12,19.95-19.12s19.81,8.43,19.81,19v.14c0,10.56-8.5,19.12-19.95,19.12S260.12,106.52,260.12,96Zm29.48,0v-.14c0-5.41-3.91-10.14-9.67-10.14-6,0-9.52,4.59-9.52,10v.14c0,5.42,3.9,10.15,9.66,10.15C286,106,289.6,101.38,289.6,96Z"/>
      <path class="cls-4" d="M307.42,77.39h10.42V84.8c2.13-5.08,5.55-8.37,11.72-8.09v10.9H329c-6.92,0-11.17,4.18-11.17,13v13.57H307.42Z"/>
      <path class="cls-4" d="M336.08,77.39h10.41V84.8c2.13-5.08,5.56-8.37,11.72-8.09v10.9h-.54c-6.93,0-11.18,4.18-11.18,13v13.57H336.08Z"/>
      <path class="cls-4" d="M364.25,122.77l3.49-7.54a9.55,9.55,0,0,0,4.46,1.44c1.78,0,2.74-.55,3.63-2.4L361.44,77.39h11l8.37,25,8-25h10.83L385.57,115c-2.81,7.47-5.83,10.28-12.07,10.28A17.28,17.28,0,0,1,364.25,122.77Z"/>
      <path class="cls-4" d="M403,120.92c4.73-.48,7.06-2.88,6.72-6.79h-4.25v-11h11.1v9.26c0,9-4.52,12.68-12.68,12.82Z"/>
      <path class="cls-4" d="M447.74,103.71V86.3h-4.39V77.39h4.39V68h10.42v9.39h8.64V86.3h-8.64V102c0,2.4,1,3.56,3.36,3.56a10.62,10.62,0,0,0,5.14-1.3v8.36a15.31,15.31,0,0,1-8.23,2.13C452.06,114.75,447.74,112.21,447.74,103.71Z"/>
      <path class="cls-4" d="M474.47,64.1h10.42V82.6c2.4-3.08,5.49-5.89,10.76-5.89,7.89,0,12.48,5.21,12.48,13.64v23.78H497.71V93.64c0-4.94-2.33-7.47-6.31-7.47s-6.51,2.53-6.51,7.47v20.49H474.47Z"/>
      <path class="cls-4" d="M515.4,96v-.14c0-10.49,7.47-19.12,18.16-19.12,12.27,0,17.89,9.52,17.89,19.94,0,.83-.07,1.79-.14,2.74H525.75c1,4.73,4.31,7.2,9,7.2,3.49,0,6-1.09,8.91-3.77l6,5.28c-3.43,4.25-8.36,6.85-15,6.85C523.55,115,515.4,107.21,515.4,96Zm25.91-3.09c-.62-4.66-3.36-7.81-7.75-7.81s-7.13,3.08-7.95,7.81Z"/>
      <path class="cls-4" d="M559.2,77.39h10.42V84.8c2.12-5.08,5.55-8.37,11.72-8.09v10.9h-.55c-6.92,0-11.17,4.18-11.17,13v13.57H559.2Z"/>
      <path class="cls-4" d="M586.07,96v-.14c0-10.49,7.47-19.12,18.16-19.12,12.27,0,17.89,9.52,17.89,19.94,0,.83-.07,1.79-.13,2.74H596.42c1,4.73,4.32,7.2,9,7.2,3.49,0,6-1.09,8.91-3.77l6,5.28c-3.42,4.25-8.36,6.85-15,6.85C594.23,115,586.07,107.21,586.07,96ZM612,92.88c-.62-4.66-3.36-7.81-7.75-7.81s-7.13,3.08-8,7.81Z"/>
      <path class="cls-4" d="M647.56,109.27l4.45-6.86c4,2.88,8.16,4.39,11.59,4.39,3,0,4.38-1.1,4.38-2.74v-.14c0-2.26-3.56-3-7.61-4.25-5.14-1.51-11-3.91-11-11V88.5c0-7.47,6-11.66,13.43-11.66a25.47,25.47,0,0,1,13.71,4.25l-4,7.2c-3.63-2.12-7.26-3.43-9.93-3.43S658.8,86,658.8,87.4v.14c0,2,3.49,3,7.47,4.38,5.14,1.72,11.1,4.18,11.1,10.9V103c0,8.16-6.1,11.86-14,11.86A25.76,25.76,0,0,1,647.56,109.27Z"/>
      <path class="cls-4" d="M683.07,96v-.14c0-10.49,7.47-19.12,18.16-19.12,12.27,0,17.89,9.52,17.89,19.94,0,.83-.07,1.79-.14,2.74H693.42c1,4.73,4.31,7.2,9,7.2,3.49,0,6-1.09,8.91-3.77l6,5.28c-3.43,4.25-8.36,6.85-15,6.85C691.22,115,683.07,107.21,683.07,96ZM709,92.88c-.62-4.66-3.36-7.81-7.75-7.81s-7.13,3.08-8,7.81Z"/>
      <path class="cls-4" d="M725.09,96v-.14c0-10.49,7.47-19.12,18.16-19.12,12.27,0,17.89,9.52,17.89,19.94,0,.83-.07,1.79-.14,2.74H735.44c1,4.73,4.31,7.2,9,7.2,3.5,0,6-1.09,8.91-3.77l6,5.28c-3.43,4.25-8.36,6.85-15,6.85C733.24,115,725.09,107.21,725.09,96ZM751,92.88c-.61-4.66-3.35-7.81-7.74-7.81s-7.13,3.08-8,7.81Z"/>
      <path class="cls-4" d="M768.89,77.39h10.42V82.6c2.39-3.08,5.55-5.89,10.83-5.89,4.79,0,8.43,2.12,10.34,5.82,3.23-3.77,7.06-5.82,12.07-5.82,7.74,0,12.4,4.66,12.4,13.5v23.92H814.54V93.64c0-4.94-2.2-7.47-6.1-7.47s-6.31,2.53-6.31,7.47v20.49H791.71V93.64c0-4.94-2.19-7.47-6.1-7.47s-6.3,2.53-6.3,7.47v20.49H768.89Z"/>
      <path class="cls-4" d="M831.13,109.27l4.46-6.86c4,2.88,8.15,4.39,11.58,4.39,3,0,4.39-1.1,4.39-2.74v-.14c0-2.26-3.57-3-7.61-4.25-5.14-1.51-11-3.91-11-11V88.5c0-7.47,6-11.66,13.44-11.66a25.41,25.41,0,0,1,13.7,4.25l-4,7.2c-3.63-2.12-7.27-3.43-9.94-3.43s-3.84,1.1-3.84,2.54v.14c0,2,3.5,3,7.47,4.38C855,93.64,861,96.1,861,102.82V103c0,8.16-6.1,11.86-14.05,11.86A25.79,25.79,0,0,1,831.13,109.27Z"/>
      <path class="cls-4" d="M165.15,186V168.56h-4.38v-8.91h4.38v-9.39h10.42v9.39h8.64v8.91h-8.64v15.7c0,2.4,1,3.56,3.36,3.56a10.62,10.62,0,0,0,5.14-1.3v8.36a15.37,15.37,0,0,1-8.22,2.13C169.47,197,165.15,194.47,165.15,186Z"/>
      <path class="cls-4" d="M190.1,178.23v-.14c0-10.56,8.5-19.12,20-19.12s19.81,8.43,19.81,19v.14c0,10.56-8.5,19.12-20,19.12S190.1,188.78,190.1,178.23Zm29.48,0v-.14c0-5.42-3.91-10.14-9.67-10.14-6,0-9.52,4.59-9.52,10v.14c0,5.41,3.9,10.14,9.66,10.14C216,188.23,219.58,183.64,219.58,178.23Z"/>
      <path class="cls-4" d="M268.38,191.59v4.8H258v-50h10.41v18.58a13.5,13.5,0,0,1,11.45-6c8.57,0,16.73,6.71,16.73,19v.14c0,12.27-8,19-16.73,19A14.12,14.12,0,0,1,268.38,191.59Zm17.76-13.5V178c0-6.1-4.12-10.14-9-10.14s-8.91,4-8.91,10.14v.14c0,6.1,4,10.14,8.91,10.14S286.14,184.26,286.14,178.09Z"/>
      <path class="cls-4" d="M302.45,178.23v-.14c0-10.49,7.48-19.12,18.17-19.12,12.27,0,17.89,9.52,17.89,19.94,0,.82-.07,1.78-.14,2.74H312.8c1,4.73,4.32,7.2,9,7.2,3.5,0,6-1.1,8.91-3.77l6,5.28c-3.43,4.25-8.36,6.85-15,6.85C310.61,197.21,302.45,189.47,302.45,178.23Zm25.91-3.09c-.61-4.66-3.35-7.81-7.74-7.81s-7.13,3.08-7.95,7.81Z"/>
      <path class="cls-4" d="M366.82,159.65h10.42v5.21c2.4-3.08,5.48-5.89,10.76-5.89,7.88,0,12.47,5.21,12.47,13.64v23.78H390.06V175.9c0-4.94-2.33-7.47-6.31-7.47s-6.51,2.53-6.51,7.47v20.49H366.82Z"/>
      <path class="cls-4" d="M407.74,178.23v-.14c0-10.56,8.5-19.12,19.95-19.12s19.81,8.43,19.81,19v.14c0,10.56-8.5,19.12-19.95,19.12S407.74,188.78,407.74,178.23Zm29.48,0v-.14c0-5.42-3.91-10.14-9.67-10.14-6,0-9.53,4.59-9.53,10v.14c0,5.41,3.91,10.14,9.67,10.14C433.65,188.23,437.22,183.64,437.22,178.23Z"/>
      <path class="cls-4" d="M473.82,178.23v-.14A18.86,18.86,0,0,1,493.08,159c6.93,0,11.24,2.33,14.67,6.17L501.38,172c-2.33-2.47-4.66-4-8.37-4-5.2,0-8.91,4.59-8.91,10v.14c0,5.62,3.64,10.14,9.33,10.14,3.49,0,5.89-1.5,8.43-3.9l6.1,6.17c-3.57,3.9-7.68,6.71-15,6.71A18.76,18.76,0,0,1,473.82,178.23Z"/>
      <path class="cls-4" d="M513,178.23v-.14c0-10.56,8.5-19.12,19.95-19.12s19.81,8.43,19.81,19v.14c0,10.56-8.5,19.12-20,19.12S513,188.78,513,178.23Zm29.48,0v-.14c0-5.42-3.91-10.14-9.67-10.14-6,0-9.52,4.59-9.52,10v.14c0,5.41,3.9,10.14,9.66,10.14C538.87,188.23,542.44,183.64,542.44,178.23Z"/>
      <path class="cls-4" d="M560.26,159.65h10.42v5.21c2.4-3.08,5.48-5.89,10.76-5.89,7.88,0,12.48,5.21,12.48,13.64v23.78H583.5V175.9c0-4.94-2.33-7.47-6.31-7.47s-6.51,2.53-6.51,7.47v20.49H560.26Z"/>
      <path class="cls-4" d="M603,159.65h10.41v5.21c2.4-3.08,5.49-5.89,10.77-5.89,7.88,0,12.47,5.21,12.47,13.64v23.78H626.2V175.9c0-4.94-2.33-7.47-6.3-7.47s-6.52,2.53-6.52,7.47v20.49H603Z"/>
      <path class="cls-4" d="M643.89,178.23v-.14c0-10.49,7.47-19.12,18.16-19.12,12.27,0,17.89,9.52,17.89,19.94,0,.82-.07,1.78-.13,2.74H654.24c1,4.73,4.32,7.2,9,7.2,3.49,0,6-1.1,8.91-3.77l6,5.28c-3.43,4.25-8.36,6.85-15,6.85C652.05,197.21,643.89,189.47,643.89,178.23Zm25.91-3.09c-.62-4.66-3.36-7.81-7.75-7.81s-7.13,3.08-7.95,7.81Z"/>
      <path class="cls-4" d="M685.91,178.23v-.14A18.86,18.86,0,0,1,705.17,159c6.92,0,11.24,2.33,14.67,6.17L713.46,172c-2.33-2.47-4.66-4-8.36-4-5.21,0-8.91,4.59-8.91,10v.14c0,5.62,3.63,10.14,9.32,10.14,3.5,0,5.9-1.5,8.43-3.9l6.1,6.17c-3.56,3.9-7.67,6.71-15,6.71A18.76,18.76,0,0,1,685.91,178.23Z"/>
      <path class="cls-4" d="M728.55,186V168.56h-4.39v-8.91h4.39v-9.39H739v9.39h8.63v8.91H739v15.7c0,2.4,1,3.56,3.35,3.56a10.59,10.59,0,0,0,5.14-1.3v8.36a15.37,15.37,0,0,1-8.22,2.13C732.86,197,728.55,194.47,728.55,186Z"/>
      <path class="cls-4" d="M755.49,146.35h11v9.26h-11Zm.27,13.3h10.42v36.74H755.76Z"/>
      <path class="cls-4" d="M774.2,178.23v-.14c0-10.56,8.5-19.12,19.94-19.12S814,167.4,814,178v.14c0,10.56-8.5,19.12-19.94,19.12S774.2,188.78,774.2,178.23Zm29.47,0v-.14c0-5.42-3.9-10.14-9.66-10.14-6,0-9.53,4.59-9.53,10v.14c0,5.41,3.91,10.14,9.66,10.14C800.11,188.23,803.67,183.64,803.67,178.23Z"/>
      <path class="cls-4" d="M821.5,159.65h10.41v5.21c2.4-3.08,5.49-5.89,10.77-5.89,7.88,0,12.47,5.21,12.47,13.64v23.78H844.73V175.9c0-4.94-2.33-7.47-6.3-7.47s-6.52,2.53-6.52,7.47v20.49H821.5Z"/>
      <path class="cls-4" d="M863.79,185.42h11.1v11h-11.1Z"/>
      <path class="cls-4" d="M883.4,185.42h11.1v11H883.4Z"/>
      <path class="cls-4" d="M903,185.42h11.1v11H903Z"/>
    </g>
  </g>
  <g id="_Laag_" data-name="&lt;Laag&gt;">
    <g class="cls-8">
      <path class="cls-9" d="M839.05,682c11.46,184.62-120.44,339.37-297.11,351a325.4,325.4,0,0,1-346.32-301.1C182,551.82,315.06,394.69,492.74,380.92S825.47,502,839.05,682"/>
      <path class="cls-10" d="M655.19,654.55a10.38,10.38,0,0,1-4,.93c-5.41.35-8.41-2.83-8.7-7.29-.35-5.33,3.26-8.55,8-8.86a9.12,9.12,0,0,1,3.9.45l-.53,2.85a7.79,7.79,0,0,0-3-.39c-2.81.19-4.88,2-4.65,5.5.2,3.14,2.19,5,5.34,4.78a8.87,8.87,0,0,0,2.91-.7Z"/>
      <path class="cls-10" d="M660.05,639l.59,9c.18,2.69,1.28,4,3.09,3.87s2.8-1.49,2.62-4.24l-.59-9,3.53-.23.57,8.77c.31,4.83-2,7.29-6.06,7.55s-6.4-1.77-6.73-6.76l-.57-8.73Z"/>
      <path class="cls-11" d="M102.43,1045.09s97.4-80.9,122.33-108.37,59.89-71.37,64.2-91.65c4.21-19.79-5-55-7.56-64.49a84.32,84.32,0,0,1-1.55-36.37c2.58-13.57,3.37-42.83,4.25-55.06s5-29.57,29.11-43.61c8.73-3.72,49.15,7.14,91-2.8s157.1-121,183.85-116.42,55.16,7.28,61.08,22,4.53,28.24-6,39.39c13.48,11.73,16.37,34,10.11,46.65,30.28-.52,48.6,39.56,29.63,66.43-26.49,37.49-36.74,53.93-53,52.76s-34.32-17.41-34.32-17.41l4.3,25.21s17.58.19,27.31,5c6.65,3.33,9.61,4.33,17.27,10.43S663.53,802.66,657.2,822s-27.51,33.15-51.14,14.3-56.88,41.51-64.23,63.36-16.67,33.52-50,45.83-63.25,20.72-76.74,32.71-47.06,52.3-47.06,52.3l-20.48,17.74"/>
      <path class="cls-12" d="M245.61,904.33c24.93-27.48,39-39,43.35-59.26,4.21-19.79-5-55-7.56-64.49a84.32,84.32,0,0,1-1.55-36.37c2.58-13.57,3.37-42.83,4.25-55.06s5-29.57,29.11-43.61c8.73-3.72,49.15,7.14,91-2.8s157.1-121,183.85-116.42,55.16,7.28,61.08,22,4.53,28.24-6,39.39c13.48,11.73,16.37,34,10.11,46.65,30.28-.52,48.6,39.56,29.63,66.43-26.49,37.49-36.74,53.93-53,52.76s-34.32-17.41-34.32-17.41l4.3,25.21s28.32-.85,35,7.76,6.4,5.24,14.06,11.34,14.69,22.18,8.36,41.53-27.51,33.15-51.14,14.3-56.88,41.51-64.23,63.36-16.67,33.52-50,45.83-63.25,20.72-76.74,32.71-38.07,41.65-38.07,41.65"/>
      <path class="cls-7" d="M402.54,871,386.85,663.1c-9.82-.18-18.7-.88-26-1.46-6.78-.53-12.65-1-15.87-.75-.3,0,.85,18.2.68,18.22-19.56,11.72-40.87,26.67-41.63,37.23-.23,3.2-.45,7.62-.71,12.74-.75,14.63-3.05,14.69-5,25.23a75.3,75.3,0,0,0,1.39,32.3c8.21,31,28.69,52.76,25.59,67.37-6.14,28.87-60.22,89.11-66.37,95.88-21.82,24-60.66,66.66-69.63,76.48L187,1041.87l176.53-20c7.94-9.45,33.79-39.94,45.68-50.51s32.08-17.58,57.78-26.62c7.06-2.47,14.34-5,21.82-7.79,15.28-5.66,25-11,31.56-17.36,5.63-5.47,9.27-11.88,13-22.86,3-9,9.83-23.5,18.71-37.29Z"/>
      <g class="cls-13">
        <path class="cls-7" d="M604.66,701.56c5.11-5.78,11.05-19.74,15.5-24.24s3.62-5.75-1.39-6.5-14.93-4.09-17.07-8.48-4.43-9-4.8,4.48,3,40.13,7.76,34.74"/>
      </g>
      <g>
        <path class="cls-14" d="M418.88,924.4,591.3,911a28.7,28.7,0,0,0,26.18-30.91L587.31,480.47A28.53,28.53,0,0,0,556.81,454L384.38,467.31a28.68,28.68,0,0,0-26.17,30.92l30.16,399.65a28.54,28.54,0,0,0,30.51,26.52"/>
        <path class="cls-15" d="M418.88,924.4,591.3,911a28.7,28.7,0,0,0,26.18-30.91L587.31,480.47A28.53,28.53,0,0,0,556.81,454L384.38,467.31a28.68,28.68,0,0,0-26.17,30.92l30.16,399.65A28.54,28.54,0,0,0,418.88,924.4Z"/>
        <path class="cls-11" d="M593.14,528.9s-11.25,40.78,7.05,74.48c-9.65,21.27-4.54,59.19,5.13,68,35.15,17,49-38.78,49-38.78V622.51"/>
        <path class="cls-16" d="M593.14,528.9s-11.25,40.78,7.05,74.48c-9.65,21.27-4.54,59.19,5.13,68,35.15,17,49-38.78,49-38.78V622.51"/>
        <polygon class="cls-17" points="401.27 871.89 598.16 856.63 571.86 508.15 374.98 523.42 401.27 871.89"/>
        <polygon class="cls-18" points="402.54 871.04 599.43 855.78 573.13 507.31 376.25 522.57 402.54 871.04"/>
        <path class="cls-11" d="M623.06,674.25s-17.72,13.11-18.86,19.29-4.75,42.45,11.63,53"/>
        <path class="cls-16" d="M623.06,674.25s-17.72,13.11-18.86,19.29-4.75,42.45,11.63,53"/>
        <path class="cls-11" d="M318.44,642.31l9.24-5.94s16.12-25,23.72-25.57,25.67,6.2,25.67,35.86-6,69.35-37,82.24"/>
        <path class="cls-16" d="M318.44,642.31l9.24-5.94s16.12-25,23.72-25.57,25.67,6.2,25.67,35.86-6,69.35-37,82.24"/>
        <path class="cls-18" d="M600.19,603.38s24,.28,39.74-14.8"/>
        <path class="cls-18" d="M327.67,636.36c-4.45,6.57-13.34,27.95-7.06,39.63s16.93,1.66,18.94-7.43,13.13-49.55,6.54-54.94"/>
      </g>
      <g class="cls-19">
        <path class="cls-7" d="M623.35,676.85c-8,6.7-16.77,16.35-17.73,20.53s-1.73,27,4.66,39.78a23.42,23.42,0,0,0,22.32,13.16c3.4-.26,10.06-3.65,13.68-7.2-8.09.08-21.37-8.62-22.76-31.17s-.17-35.1-.17-35.1"/>
      </g>
      <g>
        <path class="cls-18" d="M627.12,638.24c-6.7-9.42-19.58-17.87-21.6-17.94s6-6.62,10.79-9,15.74-6.44,23.32,1.84,6.76,17.95,3.91,28c-2.17,7.65-5.41,14.79-7.27,17S635.43,649.9,627.12,638.24Z"/>
        <path class="cls-11" d="M654.37,718.91c-3.52,7.12-9.49,17.39-11.08,17.28s-5.31-10.75-15-20-16.06-10.84-16.84-13.29,9.21-8.7,16.68-11.79c3.74-1.54,15.08-2.24,21.29,3.82a22,22,0,0,1,5,24"/>
        <path class="cls-18" d="M654.37,718.91c-3.52,7.12-9.49,17.39-11.08,17.28s-5.31-10.75-15-20-16.06-10.84-16.84-13.29,9.21-8.7,16.68-11.79c3.74-1.54,15.08-2.24,21.29,3.82A22,22,0,0,1,654.37,718.91Z"/>
      </g>
      <g class="cls-20">
        <path class="cls-7" d="M323.68,693.59c7.41-6,18.24-5.43,23.78-21.59s5.15-45.1,15.18-40.4,13.62,37.49,4.5,59.62-17.3,30.32-33,36.32-10.42-33.95-10.42-33.95"/>
      </g>
      <g class="cls-21">
        <path class="cls-7" d="M598.56,617.65c-2.3,17.28,1.74,46.84,7.65,50.72s16.64,4.18,20.37,2.3,9-6.63,9-6.63-15.65,1.44-23.83-8.64-13.2-37.75-13.2-37.75"/>
      </g>
      <path class="cls-22" d="M633.14,775.35c-3.87,3.43-6.67,8.77-5,14,1.29,4.09,6.23,5.83,9.15,8.59,5.92,5.6,9,13.22,13.24,20,1.29,2,4.18,7,7.35,5.21,2.49-1.39,2.08-6.32,2-8.6a62.28,62.28,0,0,0-3-17.6,28.54,28.54,0,0,0-8.18-12.67c-4-3.69-8.88-8-14.28-9.3-1.68-.4-2.4,2.19-.72,2.59,7.94,1.89,16.84,10.41,19.82,17.93a54.76,54.76,0,0,1,3.25,13.59c.24,2,1.66,9.11.08,10.75-1.94,2-6.35-7.18-7.35-9-2.45-4.35-4.84-8.83-8.17-12.58-2.64-3-5.93-4.74-8.8-7.32-4.49-4-1.33-10.39,2.48-13.77C636.33,776.09,634.43,774.2,633.14,775.35Z"/>
      <g>
        <path class="cls-10" d="M482.17,579.43c-35.76,2.15-63,33.1-60.84,69.11s72.36,122.19,72.36,122.19,59.34-94,57.17-130S517.94,577.27,482.17,579.43Z"/>
        <circle class="cls-14" cx="487.21" cy="643.1" r="48.86"/>
        <path class="cls-10" d="M473,647.86,465.23,641a32.26,32.26,0,0,1,45.48-2.74L503.84,646A21.88,21.88,0,0,0,473,647.86Z"/>
        <path class="cls-10" d="M515.39,633A39.32,39.32,0,0,0,460,636.3l-7.75-6.87a49.7,49.7,0,0,1,70.06-4.21Z"/>
        <circle class="cls-10" cx="489.17" cy="656.08" r="7.93"/>
      </g>
      <path class="cls-1" d="M839,681.92C850.56,866.53,718.7,1021.32,542,1033a325.38,325.38,0,0,1-346.4-301C182,551.92,315,394.75,492.64,380.92s332.76,121,346.4,301"/>
    </g>
    <g>
      <path class="cls-4" d="M241.26,472.44h0ZM226.9,381.17c0-.63-1.16,3-.71,3C226.42,383.19,226.81,381.58,226.9,381.17Zm-1.44,6c-.08-.64-1,3-.57,3C225.1,389.27,225.34,387.63,225.46,387.21Zm-6.93,56.5c-.15-.66-.28-1.3-.42-1.95-.35-1.69-.11-.77.16.29C218.36,442.61,218.44,443.16,218.53,443.71Zm8.07-6.1c.25,1.14.5,2.25.72,3.26a42.19,42.19,0,0,1-1.08-4.39A3.94,3.94,0,0,0,226.6,437.61Zm-.66-2c-.08-.53-.17-1-.25-1.56-.34-2.28,0,0,.5,2.23C226.11,436,226,435.8,225.94,435.58Zm-.32-.95c-.21-1.2-.4-2.36-.6-3.53.25,1.34.51,2.66.72,3.77ZM224,424.31c.17,1.38.34,2.81.52,4.3s.49,3,.74,4.56a34.09,34.09,0,0,1-1.09-4.26c-.21-1.92-.46-3.78-.62-5.64,0-.71,0,.14.21,1.43s.41,3,.56,4.12c.34,2.56.12.14-.3-3.93C223.9,424.13,223.9,424,224,424.31Zm-6.1,15.06c-.47-2-.82-4.49-1.29-7.18-.26-1.34-.39-2.75-.57-4.17s-.38-2.84-.47-4.25c.07.9.23,1.75.36,2.61a45.91,45.91,0,0,0,.64,5.21C217,434.25,217.5,437.36,217.85,439.37Zm.93-55.47c-.15.68-.31,1.41-.51,2.37.13-.67.25-1.32.38-2C218.69,384.17,218.73,384,218.78,383.9Zm6.92-6.72c.15-1.17,1.66-5.66,1.05-4.53a32.64,32.64,0,0,1,1.14-3.43c-.32.93,0,.11.07.3l-.06.43a8.76,8.76,0,0,0-.51,2.28c0-.21.26-.71.33-.66-.11.34-.19.67-.28,1-.28,1-.57,1.78-.83,2.45l-.13,0a26.72,26.72,0,0,0,.87-3.4c-.42,1.09-.61,1.86-.83,2.59s-.37,1.64-.56,2.34C225.87,376.75,225.79,377,225.7,377.18Zm.45-9.35-.25.33a25.75,25.75,0,0,1,1.6-4.34C227.14,364.92,226.45,366.78,226.15,367.83Zm38.66,140a2.83,2.83,0,0,0,1.22-2.93c-.08-.6-1.06-1.57-1.55-2.35a14.11,14.11,0,0,0-2-2.71c-.37-.41-.84-.86-1.46-1.5l-2.35-2.6L257.11,494l-1.58-1.79-2.24-2.78c-4.3-5.25-3.67-4.5-7.92-9.93-.2-.62-4-6.74-4.12-7a39.55,39.55,0,0,1-2.19-3.35L237.82,467c-.42-.72-.75-1.49-1.11-2.22l-1.83-3.87c-.51-1-.74-1.78-.83-1.9s-.6-1.39-1.28-2.94c-.32-.77-.75-1.63-1.1-2.55s-.72-1.86-1.1-2.77c-.38-1.2-.9-2.47-1.3-4s-.94-3.18-1.5-5.11c.53,1.41.2.39-.27-1.82-.26-1.1-.58-2.49-.93-4s-.58-3.18-.88-4.78c-.55-2.59.7,4,.63,4.11-.31-1.39-.86-4.17-1.2-6.35-.2-1.56-.41-3.16-.6-4.59s-.23-2.72-.3-3.62c-.09-1.13.13,3.83-.33-2.11-.22-6,.51.81.4-3.24,0-1-.1-2.21-.08-3.49s0-2.67,0-4,.1-2.69.14-3.9.1-2.29.18-3.13c.17-1.7-.1,0-.3,2.48-.09,1.26-.19,2.72-.29,4.07s-.07,2.59-.1,3.4c0,1.6-.09,1.82-.12.9,0-.45,0-1.2,0-2.19s0-2.25.05-3.72c.13-2.94,0-1.9-.12.61s-.23,6.48-.11,9.39c.15,5.83-.08-1.51-.14-2.14a17.28,17.28,0,0,0,0,1.8c0,1.14,0,1.3-.08.83,0-1.19,0-2.36-.05-3.52s.06-2.32.08-3.48c.09-.67.14-.66.16.63.09-3.71.43-8.49,1-13.4a123.12,123.12,0,0,1,2.47-14.17,92,92,0,0,0-2.23,11.08c-.14,1.07-.29,2.17-.43,3.26s-.22,2.2-.33,3.28c-.24,2.17-.32,4.29-.46,6.24,0-.8.06-2.56.18-4.32s.35-3.51.35-4.33a22.93,22.93,0,0,0-.28,2.45,71.42,71.42,0,0,1,1-9.24c-1.15,5.23-1.55,12.22-1.76,18.91,0-.47,0-.93,0-1.39,0-1.71-.06-1.2-.09.39a109.21,109.21,0,0,1,.69-11.82c.5-4.18,1.11-8.25,1.59-11.07-.35.5-1.66,9-1.25,5.48-.2.86-.35,1.92-.52,3.1,0-.37,0-.74,0-1.11a8.16,8.16,0,0,1,0-.82c.85-5,2.57-9.77,3.7-14.62l1.11-3.74a17,17,0,0,0,.56-2.42c-.45,1.14-.75,2.19-1.1,3.29l.09-.52c.38-1.3.83-2.77,1.27-4.1.36-.56.9-2.25,1.32-3-.06-.28-.62,1.25-.46.64a8,8,0,0,0-.57,1.51c-.33.77-.87,2.07-1.35,3.51.07-.69.19-1.35.29-2,.58-1.74,1.32-3.9,1.95-5.68-.42.94-.54.86-.94,1.81s-.56,1.53-.76,2.14l.12-.9c.62-1.77,1.4-4,1-2.93l-.59,1.45c-.16.42-.29.72-.3.73,0-.15,0-.3,0-.45.53-1.51,1.2-3.43,1.74-4.8-.08,0-.22.42-.33.69-.06,0,.07-.3.13-.5a12.88,12.88,0,0,0-.8,1.9c.21.14-.38,1.46-.78,2.62l-.29-.26c.49-1.32,1.19-3.12,1.54-3.93.65-1.57-.75,1.74-.78,1.69s0-.13.11-.33.17-.49.3-.82c.26-.67.59-1.55,1-2.38A28.57,28.57,0,0,0,231.6,358a40.3,40.3,0,0,0-2,4.43c-.88,2.17-1.7,4.6-2.1,5.82-.37.84-.69,1.63-1,2.51-.66,1.93-1,3.75-1.64,5.21.94-3.13,1.78-6.46,2.8-9.19l-.18.18c.78-2.19,2-5.35,2.37-6.21a62.48,62.48,0,0,0-2.66,6.5h-.1a10.2,10.2,0,0,0,.89-2.8c-.5,1.35-.78,2.11-1,2.84,0-.18-.12-.28-.28-.16.6-1.73,1.21-3.4,1.88-5,.09,0-.26.75-.35,1,.37-.62.23-.57,1.41-3.2-.17.08-.62,1.33-.94,1.73a27.82,27.82,0,0,1,1.44-3.64c-.16-.17-1.21,2.23-1.57,2.89-.08.15-.1.16.13-.46.43-1.16.2-.69-.24.32-.25.49-.49,1-.73,1.46.23-.8,1.32-3.22,1.82-4.49a43,43,0,0,0-2.09,4.61c-.12.05.39-.92.12-.65-.66,1.57-1.3,3.19-1.87,4.7a12.11,12.11,0,0,1,.47-1.71c-.14.19-.35.87-.52,1.23.3-1.12.85-2.54,1.15-3.58-.33.63-.41.91-.35.33-1.14,3.24-2.63,6.84-3.6,10.13l-.45.84c.8-2.83,1.65-5.48,1.65-5.62s-1.1,3.21-1.93,6.14c-.07.13-.13.25-.19.38.12-.54.27-1.05.4-1.57-.16.54-.48,1.18-2.21,7.89.12-.75.39-1.9.64-3a21.47,21.47,0,0,0,.55-2.45,104.51,104.51,0,0,0-2.6,10.87c.1-.87.37-2.26.69-3.87s.78-3.42,1.19-5.17c-.19.24-.75,2.94-.72,2.14,0-.19.07-.37.11-.55.29-1.18.7-2.2,1.09-3.35a42.42,42.42,0,0,0,1.17-4.08,1.14,1.14,0,0,1-.19.39c.47-1.44.89-2.83,1.53-4.91-.43,1.17-.85,2.33-1.07,2.92a22,22,0,0,0-1.22,4.12c.09-.49.08-.76.22-1.34-1.2,3.13-1.94,7.35-2.8,11.41.34-2.1.85-4.08,1.2-6-.38,1.14-1.05,4.35-1.38,5.69.09-.75.46-2.42.65-3.33-.08.29-.2.7-.25.86s-.16.56-.25.95c.08-.56.17-1.16-.15.32-.48,2.3-.79,3.76-1.15,5.71.08-.72.35-2.3,0-.62s-1.26,7.07-1.65,11.88c0-.05.2-2.15.09-1.55s-.35,3.08-.43,4.33c-.08.08.05-1.21,0-.94-.08,1.55-.09.2-.18.92-.08,1.64-.12,2.67-.19,4.05a11.79,11.79,0,0,0,.18-1.87c0,.76-.1,2.13-.06,3.11.06-.9.17-2.62.26-4,0,.63-.09,2.29-.09,3.1,0,1,.13-1.3.27-3.77s.46-5.15.46-5c0,.38-.37,4.31-.32,6,.09-.28.11-.82.09.16-.38,2.59-.61,4.26-.78,6.91.05-2.85,0-1.67-.08.79,0,.88-.23-.19-.2,1.16a6.6,6.6,0,0,1-.12-1.36,59.88,59.88,0,0,0,.29,7.33.37.37,0,0,1,.11-.28c.07,1,.13,1.94.17,2.62.07,1.16.13,3.4-.3-.93-.1-1-.07-.35,0,1.23.06.78.13,1.81.21,3s.31,2.54.48,4c.09.72.18,1.47.27,2.23s.26,1.52.39,2.29c.27,1.53.53,3.09.82,4.58s.67,2.9,1,4.19.57,2.44.87,3.37c.32,1.39.7,2.88,1.11,4.39a38.64,38.64,0,0,0,1.55,4.43c.32.89.64,1.75,1,2.61s.61,1.62.87,2.44c-.41-.88-.83-1.76-.57-1a20.09,20.09,0,0,1,.68,2.17c-.13-.27,2.31,5.86,2.09,4.45a55.9,55.9,0,0,0,2.74,5.75c1,1.58,2,3.1,2.88,4.66a87.68,87.68,0,0,0,5.64,9.08c.54.88,1.19,1.65,1.77,2.47,1.83,2.4,3.55,4.88,5.59,7.07.65.75,1.28,1.48,1.92,2.2.81.91,1.59,1.84,2.46,2.7l2.63,2.51a57.46,57.46,0,0,0,5.54,4.69l1.83.95C261.05,508,263.57,508.74,264.81,507.86ZM227.54,379.42a6.29,6.29,0,0,0,.69-2.19A16.61,16.61,0,0,0,227.54,379.42Zm-.54,0c.05.26-.71,3.39-.19,1.53s1.45-5.58.88-3.72.17-2-1.07,2.62c-.27,1.18-.55,2.37-.81,3.48s-.41,2.15-.57,3c-.32,1.64-.39,2.48-.22,1.56l.86-4C226.23,382.3,226.65,380.66,227,379.4Zm-8.09.88a21.25,21.25,0,0,0,.66-2.49c.37-1.42.81-3.11,1.07-4.07-.36,1.12-.82,2.7-1.18,4A24.5,24.5,0,0,0,218.91,380.28Zm-1.56,7c-.16,0-.28,1.09-.41,1.85A11.1,11.1,0,0,0,217.35,387.26Zm12.2-16.91c-.51.64-1.93,6.45-.79,2.67C229,372.27,229.14,371.44,229.55,370.35Zm-13.92,25.48c.19-.1.26-1.77.44-2.12C216,393.46,215.79,394.69,215.63,395.83Zm-.4,4.95a14.84,14.84,0,0,0,.25-2.15A8.25,8.25,0,0,0,215.23,400.78Zm-.71,8.54a12,12,0,0,0,.07-1.89A5,5,0,0,0,214.52,409.32Zm9.61-41.77a26.24,26.24,0,0,0,.94-2.5A23.76,23.76,0,0,0,224.13,367.55Zm-1.8,4.31a20.34,20.34,0,0,0,.68-2A6.82,6.82,0,0,0,222.33,371.86Zm1-2.88a11.86,11.86,0,0,0,.64-1.77C223.77,367.17,223.34,368.62,223.29,369Z"/>
      <polygon class="cls-4" points="242.15 524.33 295.09 531.63 274.94 482.13 242.15 524.33"/>
    </g>
  </g>
</svg>
